<?xml version="1.0" encoding="UTF-8" standalone="no"?>
<!-- Created with Inkscape (http://www.inkscape.org/) -->

<svg
   xmlns:dc="http://purl.org/dc/elements/1.1/"
   xmlns:cc="http://creativecommons.org/ns#"
   xmlns:rdf="http://www.w3.org/1999/02/22-rdf-syntax-ns#"
   xmlns:svg="http://www.w3.org/2000/svg"
   xmlns="http://www.w3.org/2000/svg"
   xmlns:xlink="http://www.w3.org/1999/xlink"
   xmlns:sodipodi="http://sodipodi.sourceforge.net/DTD/sodipodi-0.dtd"
   xmlns:inkscape="http://www.inkscape.org/namespaces/inkscape"
   width="512"
   height="512"
   viewBox="0 0 512.00001 512.00001"
   id="svg2"
   version="1.1"
   inkscape:version="0.91 r13725"
   sodipodi:docname="TD_UI_Keyboard_Left_01.svg"
   inkscape:export-filename="TD_UI_Keyboard_Left_01.png"
   inkscape:export-xdpi="90"
   inkscape:export-ydpi="90">
  <defs
     id="defs4" />
  <sodipodi:namedview
     id="base"
     pagecolor="#ffffff"
     bordercolor="#666666"
     borderopacity="1.0"
     inkscape:pageopacity="0.0"
     inkscape:pageshadow="2"
     inkscape:zoom="0.9899495"
     inkscape:cx="130.26029"
     inkscape:cy="251.93189"
     inkscape:document-units="px"
     inkscape:current-layer="layer9"
     showgrid="false"
     borderlayer="true"
     inkscape:showpageshadow="false"
     units="px"
     inkscape:window-width="1920"
     inkscape:window-height="1027"
     inkscape:window-x="-8"
     inkscape:window-y="-8"
     inkscape:window-maximized="1" />
  <metadata
     id="metadata7">
    <rdf:RDF>
      <cc:Work
         rdf:about="">
        <dc:format>image/svg+xml</dc:format>
        <dc:type
           rdf:resource="http://purl.org/dc/dcmitype/StillImage" />
        <dc:title />
      </cc:Work>
    </rdf:RDF>
  </metadata>
  <g
     inkscape:label="Ref"
     inkscape:groupmode="layer"
     id="layer1"
     transform="translate(0,-540.36216)"
     style="display:none;opacity:0.37556565">
    <image
       y="408.38986"
       x="400.3685"
       id="image4144"
       xlink:href="data:image/png;base64,iVBORw0KGgoAAAANSUhEUgAAAlgAAACsCAYAAACn+tL6AAAABHNCSVQICAgIfAhkiAAAAAlwSFlz AAAJIwAACSMBT71oAQAAABl0RVh0U29mdHdhcmUAd3d3Lmlua3NjYXBlLm9yZ5vuPBoAACAASURB VHic7J15XFNnvv+/OSd7gCQkIeyEHUQRRJHdfUFFi+KCgmttO2qdbnfm3um9v3tn7nTudaba1nas XdS6UHDBFVEUxA1EZBFk35dA2AIJCdlP8vvDxss4WgXPsbY979fLlzzJOc/neU6ec873eZ7v830o CILEUSiUHQiCYEBCQkJCQkJCQjJuzGYzarFYvqCgKHrinXfe+RdbW1vSwCIhISEhISEheQFUKhX6 6aef/g1BEAQjjSsSEhISEhISkhfH1tYWQxAEQ37qgpCQkJCQkJCQ/NIgDSwSEhISEhISEpwhDSwS EhISEhISEpwhDSwSEhISEhISEpyhPs9Bzc3NrIaGBgHe4lOmTOkVi8VGvPP9MV5WXYqKiuyHhobY eGrQaDRs7ty5stGfXb161dlkMuFqKAsEgpHw8PAha7q3t5dWVlYmxlMDAMDPz0/u7e2tHe/5Wq0W uXnzprPZbMazWODm5qaYOHGi2ppubGxkNzU12eMqAgDTpk3rEQqFJms6NzfXyWg0onhq8Pl8TURE xKA1XVdXx2ltbeXjqQEAEBkZ2cPj8UzPPvLJFBQUCIeHh5l4lonJZBpnzZrVa02bTCbKtWvXnDEM o+CpIxaLVVOmTFFa05WVlbZdXV1cPDUQBIG4uLhuFotlBnhYl7y8PBe8276Tk9NwSEjI8HjPv3nz pmhkZISBZ5k4HI4+Li6u35om6r53cXFRBgcHq6zpl/E7kvyyodBotPQPP/zwX552wJEjR2bw+XwQ i8WDTztmvHR0dDiaTCbFmjVr7uGd95M4fPjwTHt7ewuRdVm8eHHZyZMnl7m6ukp5PN64jYcnodPp qJ2dna58Pr8KQRDL0NBQoKenZzeCILjerIODgxyZTOaUmpp69tSpU1OpVCrP3d29B08NAIDe3l77 oaEhWL9+/Y2xnnv27NmJer3e2dPTU/bso8dGf38/t7+/32bjxo2Xjxw5MpfP5xuJaDOdnZ1iDMOG bGxs+hQKRbCLi4uMxWLh2uFQqVSs9vZ21+XLl5+/cOHCDHt7e4NIJFLgqQHwsP1jGDa0evXqkrGc 19nZybh69eoST0/PDg6Ho8OzTBqNht7R0eHs7u5+d3h4mDsyMuLj5eXVRaFQLHjqDA4Ocrq6uhy2 bNly/tChQ4vFYrFCKBSO20h5Gm1tbY5UKrULQRBMp9NJvLy8uvHWGBgYsJPJZKItW7acHct5lZWV tuXl5XM9PDw62Wy2Hs8yaTQaent7u3toaGhuc3OzRK/Xu3h5eXXhqQHwsO69vb3cTZs2ZR88eDBB LBYPiUQi5bPPHButra1ONBpNunz58hq88yZ5dfjoo4/+9qMjWG1tbUwOh0NLSEi4T0QBwsPDZRkZ GWFE5P04jY2NbD6fDwkJCdVE5G+ty4ULF6YlJCQUi0QiXF8Wo+hMS0sLsVgslJSUFMIM087Ozq4T J06EIQhin5SUVEqQjCwzMzOkra2NKZFIxnS9tFqtU3JychlR5crNzfXMzMz05/P5RiLbTHp6+jS5 XM5LTU29S4QGAIBSqew8ffr0LJFIpFu8eHEtERrh4eGy77//fsz3cm5ubsSaNWtus9lsokLFtB89 ejQYQRBk3bp1hN0v1dXV8gMHDsRPnjy5ferUqbh3RgAeXuNjx46FWiwWJDU1lbB7sqKiQn769OnA 5cuXP3dbuX///pQNGzbcAgC4d++eo16vp0VGRkpRFH2mMVtYWOhKp9NNz7hu7YcPH56GIAg9NTW1 BADg9u3bbhwORx8aGtr3vOXMzs6esGjRohrr/499Lbt9+7bLoUOHZk6aNKlt2rRpspycHP+Ojo5J QqGwNTExEZdrHh4eLjt69GgYAJAG1i+cH51a6ujosBUIBLj3dkdDpVJfylBpU1OTvaOjo5xIDSqV asYwjEagcQUAABQKBUMQZNzTMc+Dm5ubFsMwFtG/j0AgUHR0dNiO9bzneXC/CGFhYV1yudybiJGr 0dBoNBOKooReYy6Xa9TpdAJ3d/fnfhGNBzqdPuZ60Ol0C4HGFQA8nFonuh0HBQUNjYyMuBNlXFlh MBhmOp1OqFvF5MmTBxQKhdNYzqHT6Y/+zs/P/31dXd30PXv27LJ+NjQ0RD9+/Hj08ePHo0ef9+mn n/6+sbFxUklJyTzrZ0qlkjb6mKGhIToAAIPBwKhUKmI0GpFPPvnkDy0tLROKi4vnPus8nU736D1X V1eXqFarqQ0NDQlPqkdMTEzX8PDwxGnTpskAAGpqapImTJhQ1N7ePicnJyegvLzc4dSpU9NbWlps AQAKCgpcAR4aewAADQ0N3BMnTkRVVlYKAACysrImFRcX/9O1ZDKZhD6/SV4NnssHi4SEhISE5FnU 1tbyGQxG54oVK84fPHgw+OrVq75lZWW/5XK5RcPDw1PZbHZtQUFBe3R0tLS0tFSs1+tdfH1906Ki oqQYhlH27du3g0ajKTgcTs/IyIhYq9W6i8XiwrVr1163ahQWFrobjUb7gICAyvDwcJlOp0O+/vrr nXQ6XW5raytVKBQ+RqOR5+joeGdgYGASiqI6s9lMfeONNw5QKBRzQUGBj42NTdPz1MdkMvEMBgPN ZDLZBwYGdlZUVHizWKyR8+fPb3vttdf+Xl5eviQ6Onp/SUlJcmBg4KdZWVnvTJgw4YRSqeTs27cv kcfjNTU1NS2g0+mHQ0JC+p+tSPJLgjSwSEhISEhwobKyMtBgMIgzMjLWhoWFHWxpaQn29PT8ftWq VYWffvqp444dO76yHhsWFtarUCj23rt3b/X9+/cHeTxei4ODQ+nq1asLAQD27Nnz4fLlyz+TSCTq 0RozZsxo0+l03xQUFGwoLy9vZzKZQ+7u7jdfe+21MgCA3bt3x6WkpOwqLCycYGtr27Zhw4ZLu3fv /u/CwkJ3Npvd0dXVFeDk5FT3rLrI5XK62WxmS6VS76VLl/4PiqKW9vb2SCqVqjEajcLy8nI/Pp9f bzQaEYvFgnA4HBOKouq6urqlSUlJXxQUFEwDAAxFUZ1CoeAAAGlg/cr41RpYUqmU09TUJAIA8PX1 7XNwcNCVlpY6BQcH9+A5ZXHjxg2JxWIBHo83EhQUJL9165anj49Pj7u7+wheGnfv3nXWarV0JpNp DAkJkRUWFnra2dmN4D1dUV5e7qBUKtkIglji4uLaAQDa2tpsMAxDvL29cXfqHQsVFRXCoaEhGwCA 2NjY9nv37jnrdDoal8vVjMVH48eQyWSs+vp6MQCAl5dXv7u7+0hdXR2vq6tLOHPmzGa8pi0LCgpc jUYjlcPh6Lhcrra7u5sPAIBnXQD+r21a821pabFVq9X04OBgQqfSn0VHRwenpaVFBADg7+/fy2az TRUVFc7WNocHGIZRbt265QEAwOfz1ZMnTx6oqqoSsFgso7UtNzQ0cCkUCvj6+o7b0bmyslIwODho C/CwXSoUClpTU5Nw+vTp3QAPp7Vqa2sdIiIiXshpu7S0VKxSqVgoippjY2M7ZDIZq6uri2t9BpSW lopNJhNq1SWKgYGBoPDw8C9nzJjRBgBQUVGxYtmyZZd/+PofVsgWFBS4zpkzp0mj0Vzp7OwM1+v1 dlwuV6ZWq6kIglgoFAo8blwBPJyOW7BgQb1Kpboml8t9DQaDHY1G6xwaGqKzWCwTgiAmsVisM5vN VAqFYs7Ly/OhUCj6tra2AAcHh9r29vbZy5Yty35WXe7cuePP5/Nvpaam5gIApKenz6DRaCqz2cxg MpmtGo2Gq9FoRN98881GBoPRn5eXNyEoKOj8gwcPVqrVahqVSh2QSCR3jUYjY+bMmW0vfHFJfnb8 ag2srKys5QAAdDpdyePx7ly5cmW2TCZb6+/vvxEvA6ukpMSxuLj4NwKBoEAoFLbX1dUF6PV6m9LS 0rfi4+P/d+LEibi8yK5fv/6vIpEol8ViKSgUiqWrq8u7srIypKWl5faqVasK8dAAAMjNzX1PIBAU oihqiIuLa+/o6OAcP358l6ura6a3t/c1vHTGw9WrV9+xt7cvplAo5tjY2PabN2++LxQKrwsEgk68 jJKsrKzFRqORy2Qy+zkcTnF+fn6cWq1243A4XVqtts3GxuaF/SqUSiXt9u3bvxeJRFdtbW37bGxs lDKZzHdoaCjU1ta2LjQ09DgedamqqhLcvXt3h1AovCkQCDobGhp85XJ5oMFgsG9ra8tZunRpBR46 4yErKysZRVENjUZT29ra3s3Pz3+Hz+cXV1RUJLz99ttf4KFx584d15KSkq329vZ3RSJRq1Qqdayp qVnv7Ox82dvb+9q5c+dCOzo6ok0mEzcqKurQeA2TK1euvDu6XWZkZGwcGRmZMH369HcAANLS0lJV KtXUiIiIbS9Sn2vXrn0gEAhu0Wg0nY+PT/+pU6e26PV6x6lTp/57aWmpuKSkZI7ZbKY/ePBA9frr r2e+iNaPwePxmqKiojqsabFYXCwQCAwAAG5ubtcOHz4cv2HDhksAAB0dHd7l5eVLbWxs2lauXHnM bDZTzp49u/zIkSOT1q9ff9TJyenmkzTa2tr87t+/n2BnZ9e8atWqkyMjI7SsrKzEjIyMaRs2bDjq 7OycDwCwdOnSksOHDy9vaGiITk1N/dvt27cnhoeH1+l0OhtrmX4Mb29vqY+PT6c1nZiYeOvixYth jo6OMltbW62Pj48iOzs7zMnJqZvL5Wo1Gg29ubnZd/78+fsDAgIUKIr+taSkZLKrq2vbC15Wkp8p v1oDS61W+0skkvN2dnaKkJCQ/pCQkKyPP/44gs/nP/PGe17q6+snsFisVh6P1z179uxq6wt4z549 03Q6He1Z5z8PhYWFriiKDvN4vO6QkJB6Ly8vVXd3t6NCodCIxWLceqtKpZJmNptteDxet7e3d5tO p0MuXLiwls1m1/r6+hKyMu15wTCMgmEYn8fjdXt4eHTeuXPHFcMwrtlsps2bN68SLx2VSjXBxcUl l8vlDjk7Ow/n5eUttbW1LXNycmrGw7gCACgoKPCl0+ndPB6ve/r06TUuLi4apVLZ9M0330Rt2rTp JB4aAABVVVWP2ubMmTOrTpw48RqbzZaZzWa6vb09oY79z0Kj0fh4eXmdsrOzU/b19dnb2NjUbNmy 5cyuXbv+jpdGS0vLBDab3cLj8brnzZtXzWQyzS0tLW1+fn41AABNTU2v7dy584+nT5+OqK+vnzQe A2t0u3R3d5eiKGqJiIg4V1hY+ChO1NKlS4+fPHnyhWLM9fb2Ms1mM4PH43X7+fm1Ojk5aX19ffPa 29tDAR5OxYWFhX1//PjxaIVC4f4iWs9i3bp1+aPTa9asuWX9e8WKFf+wijM5OfkGAPxDiJY333zz +yedO5qUlJQ8AMizpvl8vuGtt946Zk1bpxhpNJr59ddfP2X93LoKMDk5+YmG2+MEBgYOjU4zmUzz 43VISkoqHp0ODw9/FDaGzWYbV61adYvoBTkkry6/2kjuFouFjmEY1WKxIAAP59sRBMF19d/g4GAg l8ttMZlMdBaLhWEYRvniiy/edHFxycNr+q65uTmQw+E0G41GunWllF6v5+j1eufg4GDcDKzCwkIf BoPRbjQa6RQKxXLw4MHNEomkUKfTuQuFwn8axn+ZFBYWutFotB6j0UgHAPD39+/btm3bW2azmXr+ /PkovHTMZjP7h/8p5eXl3iiKqhMSEr5/8ODBBrw0urq6JtjY2DQbjUY6nU7HAB6OcgQEBKTRaDTc VsLJ5fJAOzu7FqPRSGez2ZherxeZzWaqTqdzjoyMlOKlMx4sFgvVaDTSzWYzJSIiolmj0Xh99tln 71IoFNw6P0NDQxO4XG4LhmE0JpNpBgAwGAxO06ZN6zEajQgAWGg0mnloaMiLz+eP6z66c+eOK41G 67XeMwAADQ0NATwe71GHpLS01M/Ozu6Z/kA/RlFRUQCLxWoxGo1064rUrq6uALFY/CjfzMzM8L6+ vtDXX38940W0XhW++uqr5Oc99osvvnhzvDr79u3b9Nlnn727Z8+e/8jJyQkYy7knTpzYaTabcQ1q S/Lz4lc5gtXW1mZDo9Hk1p6O0WhECgoKAjkcTqvRaETwepHp9Xqn1NTUvwM87GV+//337/v4+JyP i4t7oQfqaIaGhibMmDEjbfLkyQNKpZImlUo5UVFRZRkZGSsQBMGt59TV1RXk6el5ddmyZfcBAEpL S3u7u7sDjUajY1NTk5OXl5fqWXkQRUtLywRnZ+d86+/Z1dXFptPpZo1G4+Ht7Y1L7JofDHCNVaOg oMDVxsamRiaTcREE0eChAQCgUqn8161bt1ssFusAHvrXGQwGwZIlSx7gpQEAoNVq3bdv3/41wMP7 wWg08lasWPHNt99+O0Wv1yNEh054GrW1tXw6nd5tvc69vb3Mt956689HjhxJdnFxwW2622g0CkaP tsjlcrrFYqGo1WqqjY2NiUKhGHt7e5lqtXriokWL0saj8Xi71Gg0qFwuDwoKCrpkTctksokuLi4V GIZRxjvS0dPTE+jj43PFGtdJrVZTh4eHA6Ojo/MBAA4ePPiawWCwW7t27de/hNGU/v5+hlqt9hud PnPmTCKDwVBs2LDhckdHB+fSpUtLzWYzPTU1Nc1kMtm1tbXZFBQUhK9bt25Mrgw6nc7tvffe+9PB gwdfGxwcFJ87d47V3t4ex+FwOng8nrS7u3sanU5Xvvnmm2kZGRmxg4OD/gwGY3DLli2nAYBSU1Nj f+fOnfiUlJR0vEa5SX4+jHsEq7i42On69euS69evSx6PP/Kqo1AoWN7e3o+cHK9du+bb0dERaTQa bQsLC3EbQnd0dHz0AK+pqXGi0Wjy9vb26HPnzs3GS8Pe3r5q8uTJAwAAfX197LNnz244f/78hmnT pn3G5XJxi5djZ2fXPXXq1AZretOmTRfWrVt3xsvL65v58+c3/Ni5RGNnZ9c/ZcqURwZIdnb2kiNH jrzh5uZ2fc6cOc+1HPtZ9Pf3sz09PbOs6ejoaCmHw+kuLS1dmJSUtAcPDQAABweHIqtxBQDQ0dHh vnjx4q/xyt/K6LYpkUjUYrG4IC0tbX1ISMjRn8q4AgBQq9UMHx+fHGu6pKTE+8CBA78RiUT1SUlJ uAVjHV3//v5+Rnp6+mYmkyk9f/58NACAt7f3xczMzOT58+f/bbxGia2t7UBISMijdpmZmTkbAMzV 1dXzdTodcu7cuRiTycRpb2+PGhgYGPf2Mlwut3P69OmP2vmJEycW0Wi0wfz8/EQAAK1WKzKZTOz0 9PRNarX6Z9+pLioq8rOxsXn0zElLS3s7Ojr6il6v5+bk5AScPn16x+zZs7MTEhJOFRQUeJvNZvr5 8+c3z5gxY8ztx2AwuH7++efbBgYG4mbOnFkslUqnSiSS66+99trFxsbGzfb29rUqlWpCXV0dz8HB oZtOpyvkcnmMXC6n63S6gFu3bq1MTk7OII2rXyfjvtmuX7/+e6FQeA0AYNKkSd0AD3uBVudBa3A3 6/D7q8QPPlePlswuWLCgfsGCBfV46/zgKwAAALNmzWqdNWvWfiI1fH19lb6+vvvw1gAAeJKzPJvN xp7mJ/EyeTzC8tatW0/grREQEKAICAj4h8jx69evz3na8eNl9O8JALBy5coivDWepLN27dp/8of5 KZg2bVoPADyaPl+8eHE1AOAeSX90/UUikX7Hjh3/cG/+MFL7QjtYPN4uU1NTrwLAVWv6ST5I42HN mjW3R6c3b958fnR6+/bt37yoxqtET09PoKOj46NpVovFQg8KChrMz8/nGQwGOoIgWuvKzytXrgQY jUbnkJCQPa6urmNauV1SUuLI4XAq3n777X2fffbZu729vTYGg0G0dOnSihs3bkg4HE61i4tLq4uL yzc9PT28urq6WVFRUedyc3NDioqK/FgsVg2FQsHw7OiS/LwY1whWRUWFkEKh6Hk8XrdEIqk2mUzI Z5999t7JkydX5+Xl+Rw8eHDpwYMHNx06dCgV7wKTkJCQkPx6UalUga2trQv27t27s6CgwBVF0ZG9 e/fuxDCMnZCQUGkymfj79+9ff+HChUnDw8O+69ev/6CysjKpoqJCOBadnp4ekcFgEH3++efb7O3t q0JCQvpZLFYHwMNYXAiCGKqqqhZ0dXV52tvbq/R6vaiwsHApn88vUavV3JCQkONCobD63LlzIcRc CZJXnXGNYNXU1ASx2eymHxxRkc7OTp5er3d3cHAo8fX1lVVXVy/auXPnXrwLS0JCQkLy6+a99977 4+h0dHT0Zz/y/QMAgHfeeWcXjJElS5Y8eNz3cfRqRasPo5Xg4OD/eUI2bWPVJfnlMK4RLLlcHjhh woTcuXPnlsTExDTb29uPvPvuu+9JpdKE7u5uHoVCMQM8dFDFt7gkJCQkJCQkJK8+4xrB4vF4jdXV 1Quqq6vBz8/vWm9vr4dKpXL19fVNj4iI6GpsbKz74osv3gwNDb0oFot/0iXfJCQkJCQkJCQvm3EZ WI8HegOAf1hF9sPWArkvUC4SEhISEhISkp8tv9pAoyQkJCQkJCQkREEaWCQkJCQkJCQkOEMaWCQk JCQkJCQkOEMaWCQkJCQkJCQkOEMaWCQkJCQkJCQkOEMaWCQkJCQkJCQkOPOjBlZwcPDQwMAAn8gC YBj2UjaWjYyM7Ono6HAkUsNgMCBMJlNRX1/PJVLHbDYDhmEUIjVqamp4tra2fUT/PgMDA/zg4OCh sZ5nMpkILdedO3c8AwMD70mlUhGROkajETAMI7SjU1dXx7Ozs2tqbm52IlLHaBz7lmtUKlXb399P aEBio9FotlgshLaXgoICZ5FIVJyTk+NNpI5er0dMJhOh9/6NGzfcXV1dx7Q3q9lsNlj3nyUCjUaD 6vV6s9lsNhClAQBw5coVLxcXl9yrV696EqljMBgI/Q1JXg0oNBot/cMPP/yXpx2QmZkZbDAYxDQa DXdxo9EIbDa7fdmyZQ3PPvrFOX78+FSz2cwnoi4/GFcdy5cvrz1y5MhcBoNBQVEUdx2dTgdeXl5l AAAtLS1TmEz8301msxkMBoMxJSXl+rlz5/w0Go0HUb8/nU7vXbFiReVYz7169apbb29vABH1xzAM zGbzcHJy8t0TJ05MwTBMQFT9bW1tW52dnfsfPHgQw2QyDXi3GQzDQKPR0DZt2pR94sSJMJPJJKDT 6RZcReD/6rJkyZKmsZxnMpkoaWlp85hMpgXvuv/QjmH69OkFvb29tm1tbcFMJhMoFAqu9TeZTIjB YNCmpqbeOnLkSByDwWCiKIr7NdZqtaijo2M1nU43dXZ2TiSq7RsMBl1qauqYNnEfGBigXrp0aQ6d TjdTqVQiri8lPj4+r6yszLm/v9+PwWBQCPgdKRiGqdeuXXvn2LFj0TQajY13XSwWC0Wn04Gzs3PN 7Nmzu/DMm+TV4qOPPvrbMw0sEhISEhISEhKS5+ejjz76G+mDRUJCQkJCQkKCM6SBRUJCQkJCQkKC M6SBRUJCQkJCQkKCM8+12XNVVZVNU1MT7ivwQkJCpBKJRGdN5+bmOqnVag6eGlQq1bhkyZJ2a7qy stK2paVFjKcGwD/X5dq1a47Dw8M2eGqgKGpKSEhos6ZNJhMlOztbYjabcfUO5nK5qlmzZvVa0yUl JTypVCrEUwMALJGRkR1isdgIQFxd7O3tlXFxcf3WdHFxMb+7u1uApwYAWGJiYtqFQqHJ+kFOTo6r VqvF1QuZTqfrFy1a1GlNKxQK6vXr1z0AANcVSQ4ODkNRUVFyazo7O9vNYDAw8NRgsVi6BQsWSK3p wsJCQV9fH94rli0zZ85s5/F4JgAArVaLXLlyRWKxWHDtWAoEAkVsbOyANU3Evf+yeLyNjZVLly65 6vV6XNs9g8HQxcfHP2orL6vdv4w2OR7y8/PFSqXSFs9CIQiCLVq0qG20U/+FCxckGIY9l43wvNjZ 2alnz57dY00T9G6ByMjIdqLfLY+/J5/EM53cv//++1hbW1uKWCwe81L6Z9HV1SUwGo2qmJiYBzk5 OYslEonUxsZG9+wznx+dTodKpVInoVBYIZPJJvD5fAMRdens7BTr9fqRhISE4lOnTi3x8PDoxrsu ZrMZaW1tdebz+bUUCsUyNDQUIJFIehAEMeOpo1armR0dHU4pKSkX0tPTZwsEAp1IJBrGU8NisUBn Z6eYQqH0MhiMEbVa7SORSHrwXhk0ODjI6enpEW3cuPHC0aNHFwiFQpVQKFThqWGxWKCjo8ORRqN1 eXt7d5SUlCyUSCStbDYb1yXlWq2W1tra6jlx4sS8zs5OR4PB4Obp6dnz7DPHxuDgoE1fXx9fIpHc a29vn+7u7t7NZrPHHoPhRxgZGWG0t7e7RkVFXSkqKooVCoUqgUCA6+8C8PC+pNPpUgAwaTQaT09P zx4KBd8V8nK5nNPd3S1cv379xUOHDq1xdXVtx7uNvSzUajWzqanJNzIy8vzEiRPVz3teZWWlbUVF xUx3d/cuAtoKvaOjwyUkJCS/paXFA8MwRzc3t97BwUEen89XIghi6e/vtxeJRIMvojMwMGA7MDBg m5qamnPkyJFFDg4OQ93d3UF6vZ7n6Oj4wNXVtftF62KxWKC1tdWRTqd3JiYm1o3lXJPJRDl69OhS Z2fnHj6fr3nRsjxWLkpbW5sjl8ttoFKppoGBgSCJRNKDoqi5v79fYGtrq2IymS/8PFOpVMz29nbn pKSkrDNnzswSCAR6kUikwKMOo5FKpQ4UCqWPzWYPE/mebG9vd1mzZs15Fov1T3k/cxVhW1sbs7y8 PDIxMfEBngUbzYkTJ0KNRuNIYmJiM5vNJixWzXfffTdNIBBoEhISqonSyMjICDObzcr4+PgOPp9P WLyW77//fpLFYkHWrVtXQZRGf38/Mysry9/d3V0xZ86c9mefMT7S09NDLRaLae3atYS1sfb2dnZu bm6gv79/T0xMDGFLo9PT00ONRqN+3bp1NUSE6LBy7NixiQBAS0lJKSdKXyhk4AAAIABJREFUo6ys zKG0tDR469atuURpYBgG33777ZywsLDqqVOn4m4oWklLS5tMoVDMRLaxuro6Xn5+ftjs2bNLysvL J6nVakeBQNCSmJhY9qxzDx8+vHDDhg2XiSrbWDEajZRjx46FbNq06erznnP06NHY1NTUWgCAiooK oUKhsJkxY0bbePQbGxu5DAbD5O7uPjL688OHD09EUfRRu9+9e/cf33///f/84e8/vf/++/8PAECn 0yFMJvPRC8+afvxzjUaDPv7OKSkpcayurhZOmjSpb8qUKX0ff/zxn6dPn/51YWHh+x988ME7eXl5 vlqtljNnzpwHNjY2pps3b3rodDoGi8XSxcbGdpSXlztIpVLHhQsXVtFotKe+0I8dOxaakpLy3NcX 4GGYoZkzZ/ZUV1e7FBUV/fEPf/hDyunTp6cajUbG6tWrC8aS19NIT0+fCACQnJxcBQBgNBqRTz75 ZM/OnTvfG33tXoShoSH66dOng93c3Abnz5/fgkeeTyIjI2MyhmFA9HsyNzfXOTk5ufjx7z766KO/ /ejwX0dHhy2fzye0J4YgCJjN5n9q6BqNBi0rK3OOiYkZ93D1aDAM44jFYumzjxw/VCrVrNVqaU8y ruRyOZ1KpVo0Gg2Vy+UaXtSYpFAoT2zsUqmU09HRwY+KinqhuopEIp1Op3P28PD4hxugra3NprW1 1WHWrFktAA/rVVFR4TZ79uzm8eigKAoWi+WfhhTUajX13r177ladF8HDw0MzMjLiGRQU9E8v2Pv3 74saGxu9J0yY0BAUFPRCPWAURS0UCuWJ8c9u3brlHhsb2/Ei+VuhUqkWFEWf+PufOHEiasmSJXdf tH1NmTKlr7i42H70Z3V1dbzm5mbXxYsXV71I3lZQFAUMw+yJNK4AAOh0OpjN5qcOW3366acfvPPO Ox+/iEZAQIDi8uXLLv7+/nlZWVnzo6OjvyooKNh67969bmdn5+E7d+5McnNz65w+fXo3AMD58+cn oyiKhYeHNyoUigkYhuVcu3bNJzY2tjk3NzfIYrHAvHnzqouLi90GBwcFkZGRNWKxWJefn++lUCj4 M2fOfMDn8w3V1dX2NTU1/pMnT67x9vYezsrKmuzh4dEVEhLS/6wyPw0ajWaxWCxjmhKm0WiPpl1L S0tj+Hx+Z1FRkRFBELNcLufFx8fXqtVqal5e3iQmk6ldsGBB3b179xx7e3tF8fHxVV1dXWypVMrv 7+8Xtra2LuByuTXz58/Pc3FxeTRSw2AwLBaL5VFAOpPJJDx9+vTUH5KYTCZjnThx4jc0Gk3BYDAG AwICSm7fvv1vTCazGcMwGwaDITMYDMJ33333f/bu3buTSqVqAADbtm3bIWueU6dO7SkoKJg5ZcqU jKqqKgGCIEaFQsGlUqlDAABKpVJgMpnoaWlpKx0cHOp7enom0el0pVKpnGQwGNKrq6uXODo6Fn/7 7bfrf/Ob33z3tOvFYDDGbKwYDAaWWCzWXbx4cSKDwWi8fPlyYG9v78TQ0NCrX3/99eo33njj+IUL F4JpNJqxq6sr0GAw2Gq1WjeBQFAyNDQ0KTQ09OSzjN7Hn8VpaWkLRSJRLl7GFQAAn883GAwGkZeX Vz0AQH9/P6Ojo4MXFhb2o9NtYwVBEMRsNj+ailUqlbTy8nIXAIDo6OiOHzOAnxeRSKTT6/V2Ty3D iwoQxY0bN/yKioreIlpHJpOx/v73v7+xZ8+e/7d79+4/7tq16+9nz56dgrdOenr665WVlU7ff//9 v/b09LDxzh/gYc/v7Nmzqffu3Vt17do13CNK37x50+PMmTM7KioqVly4cCEYAODYsWM7uFzuc08l PA8ajQb98ssv/1xcXPzOl19+uQHPvEdz+vTpqZcvX/6TUql0KSwsnEOExs2bNz0uXrwY9ODBgznn zp0LLSkpIWw3gYsXLwb19PSEEzUSLJFIhqurqzcTkfdPicFgcMErr+bmZju9Xi8pKSlJoFKpqilT pvQ2NjY6sFgsdUFBwdb+/n7G559//rbBYGBqtVr23bt3/RgMxsAXX3zxLpPJ1B84cGCLXq9nmc1m akFBgVdRUdG7FosF0tLSPgAAkMvlIgzD0PT09PXXr1+X5OXlpXI4HGV3dzd/3759O3Q6HTs/P/+N jo4OXH1Zx4JSqQwICwuru3379raqqqpp9fX1S+/evet84MCBtxEEwYxGI+3ixYsTi4qKVqhUKvsD Bw6svn79ekxRUdFmJpOpNRqNfKFQ2Ean05/ajn8wftRGo5E+MDDgzeFwWi9cuLBs0qRJ57Zt23ZQ oVBMaWlpmeDu7n58yZIl36IoOrJ9+/ZvKBSK+dSpU9P1er0bAGAajcb/RzQCEQQZ0el0nM2bN//l 8uXLQXK53Le3tzccAChtbW0L33jjjSNCobCdw+G0VFVVLaNSqeqBgQF/Op2Oq0vFaIaHh/1jY2O/ bmpqmqnT6VwiIiK6NBqNGwBAZ2dnmJOTU//Q0NCUhISEUywWq8vOzq7f19f3UktLy6Sx6Oh0OqS3 t3dhcnJyNjE1AcjIyIi9f/++e2Vl5bSjR4/OI0oHAKCxsVFQVVW1sLq6ej6CILgHAn4Sr6yB1d3d HWhjYzOmOeqxIpfL6d9///2/+fv752/btu3P27dv/+PmzZvfa2hoSLl9+7YbHhq1tbX8gwcPLh0e Ho5obGwM0el0ftevX58lk8lYeORvpa2tzeb06dN/wTCMHRAQkK3X6+l45g8AUFNTM2PixImZPB6v Rq/Xs77++uvV7u7uN/DseRiNRmT//v3/7ubmdvH3v//9TovFgnz11VfJeOU/GqlUGuPq6nrq9ddf z9y6detJIjTi4uLae3p6/ORy+RqlUulA1GiNVCrlPHjw4J0VK1Z8TUT+AABMJtNssVhovb29hG5t 8zK4deuW+969e3fu3bt3p8Fg8LL+rVarX8ipt7y8PMDR0fHUokWL0vR6vQuKopb6+vpIqVQaotPp vKVSKRdBEF1SUtLdpKSkYplM5i+XyxfFx8cfiI2N7RAKhTWtra3LMAxDOzo6Anx8fI4lJiaWIQhi uHbtmnd/f/+E7u7uCLPZTK2oqFiempr65aJFi2rc3d3lIyMjE+RyuT+Komq5XP6TGVgYhtm6u7uP IAii37x583kqlaqys7PT8ni82vr6+lVUKtXU0NCwFEVR7dDQkBeNRhtRKBT+8fHxny9YsKCeRqPJ ExISHohEIv3TNKqqqiaIRKIbq1evLqTT6WqhUFhnNptpKIpix44dm8PhcBqHhoYCIiMjy8rKyiaI RKISpVJJQxBEp9PpbNzc3M5v27bt0Jo1a/77aRpyuXzClClTTq5cubKIz+cbGhsbF4pEolqj0Shy dHSsRVFUc+zYsQV1dXWbxWJxLZVKHebz+Q0uLi7lsbGxecRcXQAMw9jh4eEyo9HIs1gsoNPpEKvv qlqtnjh58uQBFEW1rq6uI3q93mHp0qVlfX19Emdn58ax6KSnpy8Si8U5eI5ePU5sbGzp/fv3X5fJ ZGsDAwMJm8IHeDg6uWPHjv3bt2//moidFp7EuB4mlZWVgvb2dpeIiIh6kUikb2ho4AoEAq1AIMDN 72h4eNhfIpHk4JXfk0hLS9s2ZcqUQz09PW5ffvnlCpPJJEAQROfh4XGqpqYmOiYmJuNFNSgUioXD 4chRFFUBADAYjGY+n9/l4OCAqwN8TU2NOwAAlUpVLViwgBDDVCwWV1dVVa1CUXTExsZmgEKhWNzc 3LqUSiWNy+Xi4thKo9HM77333h+t6dHD93ii0WhQk8lk09HRsUUqlRa5urqOnDt3LmTZsmX38dS5 ceOGxGKxoDwe75xOp+OXlJQ4EmFkXblyZS6Px7s5ekqFIBClUskQi8W4tl8AgMuXLwf29fW5W9M0 Gk2bnJx8E28dAABPT0+5RqPJAQAoLy+f5O/vnwMAwGKxXmj0r7+/PwhFUW1+fv4cFovV2tXVxVap VBOdnZ2vKBQKtUgkGtFqtZ7Z2dkT7O3tlSMjI95z5sx5Pzs7+y0qlboPRVGju7v7xb6+vkC9Xi8y GAzcAwcOuDk4OBRXV1cvcHBwuC+VShc4OztfGxwc9Lt06VIkh8MZjomJqaZSqYNeXl5FRqORGhoa 2ofHdRorGo0GpVAoZqlUyqFSqUoAAIPBwDcYDCiPx+u1WCyFPT09XlQqdVgkEtVQqVRDWFhYfWZm 5juBgYFDAAAmk4n7rCl1DoejCAgIqAMAsLW17Zs2bVoNAFRnZ2cvp9FoI1u3bj128uTJGIlEoq6u rlZ7e3vX9fb2sn18fK7GxcU1pKenJ/7973/fGhQUdNXV1XXkSRoTJ068EhkZ+chF5bXXXtt/7969 SREREV8EBwfLdDpdbUlJic/Q0FDn4sWL72MYdj8nJ2cyhmFUd3d3wlxr2Gx2GwCAvb19uV6v51kN oH379m1is9kNUqmUY2dnVwMAwGKxpCiKWsxmMz0iIuK53Tg0Gg3a19e34Le//e1vCanED+Tl5cU6 ODjkj4yMuJaWls6eOnXq90TqvWzGbGBdv35dUlZWlspkMrtra2s3AABKpVKHUlNT/xfPghmNRoe4 uDhcfD2ehslk4sTFxbV9+umnG99///3/zMzMDJfJZFN1Op0dk8nEZaVhbW2t18DAwAQURYeGh4cD qFSqikajGfC2oBctWlSj1WoP19fX7/zf//3fqTt27NhuY2Mz7qXATyIxMbHUaDSW379/36GwsHAt k8nsuX//fsyNGzcmv//++/+BpxbRfPvttzskEslllUpVkp6e/l+zZ8/+uLGxcSUA4GpgzZgxo23G jBltp06dCk9KSvonR0i8UCgUIQEBAYSMwlnBMIyCYRjPz89PSUT+NjY2ao1G82iZPJ1Of+oIxovi 6uo6Yt3QuKKiQr1gwYIxbW78NCZOnJjX39/v4ObmJp02bdpZAIBJkyYdpVKpJnd39/9xdXUdmTNn zqd1dXUBwcHB7WFhYekRERFdNBrtO61WSwMACofDUa5YseLY3r17/1UikZRYLBZk4cKFtTKZ7O7t 27dDpk+f/q23t/cAn8+/denSpRAGg6ETCASG+Pj43ZWVlZO8vb1fyt6uT0Kv16ORkZFf0Wg0LDY2 Nh0AYOrUqcccHBxG6urqWC4uLo3z5s1r1Gg0aE5OTggAgIuLi2bq1KlHrXnMmjXrc7Va/aMj/AkJ CY9GO1asWHHP+vdbb731KJ81a9bcAgAY7TNobbvPM2I9Y8aMtsrKSkFwcLAcAEChULBWrlx5x/p9 ZmZmvMlkYsfExByh0WhmGo0Gy5YtI2zhiRWrb9fohRG//e1vd48+ZsuWLWcAAN588820H9Knx6KR kZGRIBaLLxM5egUAsH79+pyWlhbbhoYG14ULF9YSqfVTMGYDa+bMmW0zZ8586rAqHmAYRlm3bt2H eI6IPY5UKuVQKBTzwMAAw2w2c5qbm+1aWlqWczic+oGBgajNmzf/GQ8dKpVq0mg0/iKRKF8mkyV6 eHgctbW1xb13o1QqadOnT69WKpUnBgcHI+rr6wV4Ow0CACgUCtqtW7feSE1N3XXkyJF/f//99/9j 9+7dwXjrEM3IyEhwYGDgkcDAwJJPP/00+PLly/vmz5+/nSg9Io0rAAC9Xi+ZOXMmLkbC08jOzp7I ZDIJe3n/sKAFl0UtY8HR0RG3FXw/jLr8w8jL4yPKoaGhfdYRJuvoifVeDQoKums9TigUlow2/Jyc nLSjX/AAAKNXKQYFBQ0GBQXdwKsu44HP5xusC2yso5xxcXHtAACrV68utB7HZrOxxMTEUmt69GgV Ec+t8XL16tW3g4OD/0sul9Pz8vK2h4SE/BfAQ/+kzZs3n/8pynT37l3nlpYW3+Tk5Gf+1vfu3XN8 8OBB+FjLOjw87P/WW2/9bfylfH68vLxUXl5evzjjCmCcU4REc/PmTc979+5t+93vfvcBURqurq4j Op3Oj8PhmCQSSWZWVtYWHo9XimEYIyUl5S94hVlISEiorK+vN23cuPHiX//61zlr164l5AH41Vdf /dVisSAIguh4PF4pUQ+ptLS0t2NiYr4RiUR6FEXVn3/++TYej/fMpeivGq6urunnzp37a3Z2dheG YTYUCkXb3t7uPm3aNEJXtBEFlUrt7ejosA0ICMA9pgzAQ9+4mpqaNxcuXPhfROT/U7J+/XpCXRHG S2pq6piW8ZPgS3FxsROTyewGALh7966PjY1NY1pa2uyenp44Go02yOPx6n+KtlNXVzeZTqc/cgW4 fv26pLa2dpaXl9edBQsW1OXm5vo2NDTE8Pn8ZgzDaHZ2dj2XL18ORFHUNG/evOfyw3rnnXd2EVeD Xw+vpIE1a9asllmzZhFmXFnx9fXdv2/fvv91cnK67Ovrm9PS0jLDycmpBG//kg8++OBfAQB+97vf vYdnvqP53e9+9+6BAwdeS05OvkBkPLHRy9l/zjdhampqLgAQFuPpZePk5HS1qKgoKiAggJAVP4cO HVrl5uZ2avLkyQPPPpqE5OdPY2NjoL29fT0AQHd39wRHR8eajo6OyOjo6G8mTpzYe+DAgd8CwEs3 sBQKReCMGTOO/lBG7v3791e98cYbu/fv3/8HsVi8v6amJn779u2fy2Qy9pkzZzZQqVStUqkc2rJl y9mXXdZfO6+kgfWySEpKultaWtpWUVER0dPT4zdp0qRL4w2O9yoQFhZWQKRxRfLqkpKSQtiqJQCA N95444UXfJCQ/NwwGAzslpYWW6VSOWnTpk2ZH3/88UYbGxvdmTNnZru4uNz+KcpkNBpF1jhnJSUl kx0dHQvZbDZmMpm4ZWVlUT4+PrkoilpcXV1HjEajUK/X09euXfvHZ+VLgj+/agML4OF8f1hY2Lmf uhx48CLBBUlISEhI/o/ExMQbaWlpy69evZowY8aML1EUtdBoNPmtW7cSOByOLCkp6e6zc8EfvV7v vXfv3p0Igujnzp17PDs7+7d79uyZ5erqmuXk5NRRXl6e0t7e3r548eJTFArFFBMTc+C7777buWPH jj0vKzwByUN+9QYWCQkJCQnJ47DZbGz0asOWlhZbW1vbuq1bt574Kcv14Ycfrhqdlkgk/202mynW 2YvIyMg/q1Qqmkgk0r/77rt/AQCIiIjY/aS8SIiFNLBISEhISEiewQ+r3X5S4+pJPB5KgclkmplM JmEhTkien1c2kjsJCQnJLwGpVPqTRVUnISH56SANLBISEhKCyMrKmnbixAlCA8CSkJC8moxrivDK lSt+bW1toW+88cZxvAs0murqavu+vj7erFmzWojSyM/P9xocHBTMnj27Aq/YV4+Tl5fnI5fLHYKD g2uIilM0msLCQlehUKgiIuL27du33UZGRtgAAEKhUEFUvK2uri52UVHRRIFA0Ddz5sw2vPPv7+9n lJWVSUZ/Nnv27EY8dlh/EkNDQ/SbN29OmDp1agNR29k0NzfbPXjwwGf+/PkVRK4mzcvL8xEKhQoy ZMPTkcvljMzMzJ1KpTIZACiFhYWSJx3n7e3dKxaLtS+3dCQkJC+DcY1gzZ8/v8FoNNoNDQ3hvqGw lQMHDiRmZ2f/oaio6N+J0vjuu+8WVVZWJvb39wfu27fvKBH1qaysFNTW1s5TKBRumZmZX1+5csUP b43RnDlzJiw3N/e7srIyQqKr37x5c1djY+OsxsbGWa2trR5EaGRkZMQePXr0k/7+fr+6urpYIjQa GxtF1npUVVWllJWV/RtRxlV+fr7XV1999ffe3t6Aw4cPf1NZWSnAW+PGjRuS48eP75PJZMGfffbZ 13K5nJB785NPPvlDbW3t3JycnH8/efJkBBEavwSkUilXp9P5AgAFAEAmk0me9E+hUOC66TsJCcmr w7id3Ldv3/4NngV5nC1btpw5fvx4r0wmiyZKY+PGjdkAkA0AsGvXrmnFxcWeeO1JZiU4OFgeHBz8 JQDAp59+KhkaGhICACHbjdy8edOjvb19Lp1Ob7JuhIonbW1tNiiKDq1YseKwk5MTIb3ulpYW25aW lrfefPPNTTwez0jUsuKoqChpVFTUfgCAXbt2fR4WFvYXInQAAB48eJAgkUiOrFmz5tYnn3zi1dbW 5mrd3wwvSkpKtgQFBe1etmxZ+d69e+1ycnIi8d414MSJE1EAYNmxY8f+ixcvBtXX178GAEV4arxs +vv7GTKZzGb0ZzQazWzdeHi8TJ48uW/SpElvpKWlre7t7X1nxYoV11+ooCQkJD87XulVhHK5PIDH 49UQrZORkREDAMiMGTOeaxuBsbJv374tSqUylsvl3kpKSrrz7DPGTkNDA7e4uHjrpk2b/rR///50 ImJi1dbWulEoFOPhw4c/oVKpQx988MG/4a2Rl5e30GKxMA8ePPgXk8kkmj59+p9mz5793LvAj5Wj R4/OZzAYnfPnzydsj73AwMDs4uLiv+zatWuVnZ1dydKlSyvw1sAwjGNnZ6fs7e1lqlSqSJFIhOum 1QAA7e3ty0JCQr4FADCZTHSLxULDW2P//v2pKpUqSCQS3fyhA0QoBQUFQS0tLfGjP6NSqerAwMDP XjRvBEEgNTX1+N27dwuffTQJCckvjVfawBoZGfEPDAy8TqTGd999t7ivr29WSkrKvxC1c/i6deuO FBQU3CkrK/sIRdEDRGicOXPmT35+fodv3LgRjCCIqq6ujoe3v1d8fHxtfHz8OwAAu3bt+vu1a9e8 8TZ+RkZGPPl8/qVt27Z9e+jQoYSampq5RBlYUqmU09nZuTElJWUrEfkDPPL12jl58uQ/jYyM2La2 tqYCwGG8dQICAg4XFxe/V1JSMmKxWGy8vb1x7ywYjUa3KVOmtAMA9PX1+djY2OBulL711ltH8c7z x+ByuQpbW9t/GLWmUqm4bpU1ffr0l76BNQkJyU/PK21gGQwGj5iYmDYi8sYwjLJv375tGIbZ7Ny5 83dEGVcAAFwu1+jk5DQABF1vmUzGYrFYzZ2dnTFardabQqHoGxoaPIhyqNdoNKjRaHT18PDAfZSM SqWqrPt/DQ8P+xE5gnnq1Kltzs7Ox9zd3UeI0rh+/Xook8lsXbJkyYPGxkZuS0sLIb5RS5curVi6 dOmOy5cvB1ZWVr4ZHh4uw1uDSqX2KRQKJovFwvr7+xNWrlz5Nt4aLxtbW1uNnZ1d9+jPqFSq8acq DwkJyS+HV9LAOnr06Nzu7u5Ek8nkumfPns+XLFnyH0FBQYN4anzzzTcpg4ODySwW697evXs/FolE 1zZt2pSFp8apU6fCW1pakhEEGTEYDF7+/v4f4Zm/FScnJ+3OnTv3AgB88cUXv7G3t6/BexqqoaGB e/r06b/SaLRuvV7v7+np+Zm3t/cwnhoAAKGhoRcKCgre++tf/7oCQZCRlJSUy3hrAADk5OQE6HQ6 n40bN/6NiPytzJ8/v3T//v2pu3fv/k+z2cwKCAjYh7eGUqmk7d+//2MEQbQAQE1KSvoPvDUAAFxc XM5nZmb+yWKxUDw9Pb/19fXFfZXqy2bq1Kk9U6dO7fmpy0FCQvLL40cNrODg4KHLly9PAYA2ogpg MBgoKIpqm5qabH18fFQAAKmpqbkAkIunDoIgwx0dHY7Wnv0PUxG4TkcYDAaEwWAoa2pqeBMmTFAk JSUV9/b2Vg4MDLADAgKG8HLYNplMVIvFQnnSdzt27PgSD43KykoBj8errq6udvPx8anx8/NTbt26 9W2ZTGYbGBg4iFdddDodFQAe5RUdHS2Njo5+r62tzUYikajx0CgpKXEUiUR3CwoKvJcsWVILALBg wYK6BQsWvIlH/lb0ej0VQRCNUqmkcblcI8DD0cvf//7327u6uth4hGfQaDSoTqczoyj66N7lcrnG lJSUfwMAwCsExOXLl30QBJHpdDrEOrq7bt26a3K5/LadnZ0JjxWXcrmcwWAw2rOzs/0XLVqE6+KS 0ej1eoRCoRC6B1teXp4Hl8stvXXrlmtsbKyUSC2i6e/vZ1IoFNVYzjGZTCaVSkW1tbU1EVEmlUpF /aHdE7qZfXZ2tr+Li0vu5cuXfRcuXEiITy7Ao+femOBwOPL79++LiNxzFsMwBEY9j4mgurqab2Nj 01BZWenp4+NTSZSOwWAADMNw9xMdTUVFhdDW1vapswUUGo2W/uGHH/7L0w7IzMycbDQaRVQq9Ykv 9BfBYDBQ2Gx2+5IlSxqOHTu2kMVimVAUxVXDbDaDXq9HwsLCCmpqanyMRqOIRsP/mhsMBgqHw2lb tmxZw5EjR+YxmUwLgiC4XzONRkMNCAgoMpvNlKampjAWi2V5mrE1XjAMA71eb1m/fn1uenp6OIIg XLx/FwqFYtFqtRShUNjI4XDU7e3toUTUxWw2g1arNW3YsCH/2LFj0TQajU1UXcRicV1oaKjs4sWL c5hMphlvHQzDKAaDAZkzZ861uro6UXd39wSifn+DwaCLiooqKSgomMlgMIi4Ly0ajYa2YsWKK+fP n59Oo9HYRNwvWq0WcXFxqaLT6aa2trbJTCYT95eH2WwGnU6nX79+/c0DBw7EMxgMhsVi+VkGcaZQ KGa9Xg/Lli3LEgqFz20sDQwMULOzs+cR1FZAr9ej8fHxueXl5U49PT0TWCwW7i4dZrPZYjQaNevW rSs8evRoLJ1OZxL1rHB2dq6ZPXt211jPP3r06BwGg0Eh6l7x9vYuYTKZpurq6giirrFOp6OsX7/+ anp6ejgAcIl4H+t0OopQKGzg8XjDRL4ndTodbNiw4eqTvv/oo4/+9kwDy2QyUU6ePDnFZDKx8Szc eGEwGCPLly8vp1KplqqqKpvS0tJQBMH3WUahUCwTJkx4MGXKFCUAwOnTpwNHRkaEuIoAAIPBUK5a taoSAKCtrY15+/btMCIezB4eHnVxcXH9AADnzp3zGx4eFuOtQaPR1ElJSfepVKpFq9Ui58+fn2Iw GHCP8SMSiToXLlzYBgCQm5vrJJPJfPDWQFHUOGfOnFKxWGxUqVSv5+rfAAAgAElEQVToxYsXpxiN RiaeGhQKxeLg4NAxf/78DgCAK1euuPT29nrhqQEAQKVSDfPmzSu1vixPnDgRrNfruXjrsNnswRUr VlQDADQ3N7Pu3LkThvcDDQDA29u7JioqSg4AcPz48ckGg8EObw0bG5v+xMTEOgCA3Nxc156eHgne daFSqYb4+PhSHo9nAgBQqVTo2bNnpxmNxp/sOevm5lY3b9687mcf+WQqKytty8vLQ4h4HgcHB1cE BwerAACuXLni3tvbi3sMPjqdrlu0aFGZra0tplKp0KysrDCTycTAU+Px+36sdHd3069fvx6GYRju 7j2urq4Ns2bN6gUAuHnzpqi9vT0Abw0URU1RUVHlEolEp9VqkQsXLoTo9Xrct5Li8/ndS5YsaQYA OHfunFdPT08o4DwyZ7FYTDExMdcmTpz4xJmW5zKwDh48uHzOnDklHh4ehESfHivt7e3s3NzccFdX 16KBgYHQNWvW3MG7lwEAcPbs2ck0Gq21r68vcMqUKc1ERK1uamqyvXHjRvC0adOulZeXx69evfo6 Ec72ly5d8lOr1SqtVisODg7uImKIuaWlxSY/P3/qli1bTh06dGjV0qVLCwQCAe4bjt6+fdultbXV jkqlGgQCgWX+/Pm4R/nXaDRoRkbGzMWLF5++ePHi8sTExFtERPm/deuWa3t7OwdBEEwkEmHz5s1r xVtDpVJRT548OXPlypUnT548uSg6OrrG398fd9+pmpoa3t27d/0CAwOLGhoaZicnJ9+g0Wi4jxZl ZWUFGgwGuVwunzBz5swyX19f3P0AHzx4YF9WVuZJo9GULi4uhhkzZozrZfhjKJVKWmZm5szk5OTj GRkZsRQKRRgREVHh5ORE2IKLZ3Hjxg3/3t5e58mTJ18KDw8fUxywq1evug0NDQWtWrWqhIiynTx5 MozH49XIZDJPiUSiiouLe+6VmWq1mqrX6xGBQPCj9/DQ0BD97NmzMampqScPHjy4buXKldeIvO9T UlIKxnJeW1sbMz8/PyE5OfkGEe+Jy5cv+6jVap3FYsE4HI4dEdP2RqORkp6ePiM8PPxSQUHBoiVL ltwRi8W4rtoFALh3755TbW2tvclkQnk8Hrp8+fJyvDXkcjkjIyNjeWRk5BHrYMxoPvroo7+hKIom xcXFPXGIKz8/XywQCMyv0pYYPB7PqFKpzC0tLYEbN24sxLu3ZCUgIKC3uLjYj81mU4gKE2Bvb2+Q yWScxsZG702bNhVSqVRC5r59fX3lFRUVXlQqlTp37twmIjT4fL5BpVKZb9y44RUWFtaCl//U47i7 u6tqamrczGYzPTExsZYIDRqNZvHx8ek8fvz4srlz5xY6OzsTElTVw8NjuLq62h1FUerSpUsJ8UFi MBhmLy+vzjNnzkwSCoWGqKgoQvyDRCKRrrW1Vdjd3e24YcOGu0R0egAA/Pz8BoqKiiaLxeKByMjI f5hi2b9/f+r169fXms3mend393EbXmKxWNvY2OhssVjoS5YsefS77N+/PyU/Pz8lIiIi90WfO0wm 0+zs7NydlZUVgKKocP369bdOnz79Wk9PDzM0NLSTyWSaX/Y/f3//vqCgoNYrV67EhIWFjak93rlz Jyw5Ofm5Y69JpVKOnZ3dc6/WDAoKkt25cycQQRBWQkJCHQDAxx9//JeSkpKgu3fvTufz+XVP69Cl p6fP7+np4QQGBv7oyloWi4Vxudz+48ePx8+fP78wPz8/Ijc3d8OdO3dm6HS6Tk9PzxcKPmvFet9P mjRpTJ3Dc+fORaxbt66UwWBYjhw5sqCoqCiitLQ0uLS0NHhgYMDk4+PzQu9pHx+fwfLyck+z2cxe vnz5o9Xb/f39jNzc3El8Pl9hY2PzQj52KIrCxIkT206dOjU/LCys1s/PTwHwsFN78eLFUBqNNmJv b//CHXMXFxd1XV2dq06nc0xJSblt/fzq1asTvb29+140fwAANpuN+fv71+fk5MRMnTr1nwJ737p1 a/6PDjMqFApbb2/vkWvXrnk3NzeHWj93dnauXbx4cbU1ffz48ei4uLgyoqJ7Pw6fzx+xWCxPnH4q LS0Vd3V1OcbHxz94UUdcKpVqplAoj/Koq6vjoShqsa6eunr1qu+8efMaAQBqa2v5VCrVPNaVVRwO R4dhGP//s3fecVGd2f8/t0wHhj406b0ICFiwUTTYNbbYNWs0RhNLspvNbrZ+d7Pprj1Zk1iiIEpi QwWshGJBkY70XhzaUKbfuff+/oj4I8YCci/E5L5fL1/ODHPP53nmtnOf5zzn9P2spKTEtLa29uE0 nq2tbRsDmb9pHMd/8nvk5+dbNDc3WxoZGanGjx8/6BuvmZmZ6t69eyMcHByqAX6sJ1hYWDii73cQ BKEHm9QTwzAaRVEK4MenzqysLJe+fzc2NlYN1pEwNjY2EAQhcXV1fegolpWVSUmSRHuzfBcWFlqI xWK9q6vrgAKC+4LjOEVRPz9MU1NTnZmqwSiVSgmCICQ4jv/M6W1ubhZlZWV5+/v7Vw52VSiO4yRN 0z/xrG7fvm3T0dEhNTc37woLC2NktR5JknyJRPKTp16tVosqFIqIP/3pT2uZ0EAQhEJR9CcB1Rs2 bDj60UcffdXR0cG3srIa9E1AJpNpOzo6gleuXHl2sLaYQigUUnw+f8DTob3Xlvb2dv7XX3/9X5FI VIogCDl37txDj6ZBSU9PdywqKpr8aM6z48ePj3dwcKh90rUIx3GqN4Sivb2dj2GYqnf1NADAjh07 /ojjeLdAIGhbt25dwtdff71Qp9OZq1Qq3+jo6Pf70w9XV1clQRAWrq6uynPnzo2MiYnZXVxc7FVT U+N78uRJ8/v37weiKKrbsGHD0aNHj0Z3dXW5EgQhHT9+/NHa2lrH5ubmUD6fr3j99deP9ef3Gggo iiK9o8Lm5uZNer2+naIotKSk5K+hoaGMLArre78DADh//rx/QUHBm+bm5qnffPPNu0uWLHl9MNc7 gB+dLARBhKampiqAH0dzv/jiiz0SiSS/rKxspbe39yEmVsEjCAKPTu2XlpaunTp16rbB2u5FKpUS CII88WmrX49h7u7u90eOHHldoVBMGDly5HULC4vOhISEcYWFhRYAAM3NzeMKCgpG5OTkWDPV8IGi Vqux//73v3+6du3a5oaGhlHbt2/fc/78eX8mNTIzM6NSU1NjAAASEhLGZWZmxhMEgQIAnD179p8t LS3GTOikpKS8WlhYuKS3Vl59fb0tE3Yf5eLFi9uKi4vnZ2Vlrfrwww8PMm2/rKzM5kGtv6XZ2dl/ Ly8vj6ysrBzHpEZFRYV57+9UXl4emZWVtSM3N3cqkxq9pKSkLL9z505o7/uLFy9uLCgoYDwGrKur i5eZmfkJ03Yf5dixY5MOHTq0u6mpKejUqVN/3Lt3L+MJV69cufKv0tLSmLS0tA2ffPLJZ0zb7+Xa tWteIpGItZWIvdA0zYhz1ccezlaR+UHw3PFmN27c8LKwsLi6efPmXQ4ODjeTk5Nn19XVSXbv3r1p z549b9y6dcuupqbG28rKqiQ5Odln9+7db+7du3edWq3GqqqqXs3NzZ2Rn59vsXfv3vV79ux5PSkp yedxOjdv3vQkCMJq165dmw8ePDgrKyvLFuDHVdRKpdLzwXb0pk2b9gOAwcHBYcBTrxqNxjU1NXXh /fv3R02bNu2KtbW1XCAQdHR1dYUXFhZadHZ2em3atOkrvV5vJ5PJeiorK9eYm5vf6+npGVlZWcl4 bGBfZs2aVTB//vw77e3t7hYWFt+FhITI2dApKyub6+3tvX/9+vXxfD6/urq6mvH43VOnTr1kZGSU 99Zbb+11c3M7VlVVNY1pDYVCwX9QaxjpfU0QBOMxoo/Sr0A5R0dHVWtrq5FQKKwaM2ZMU0pKirdE IulKSUl509/f/586nc6lp6fHNC8vb72rq+ufepeoDyWHDh1axefz2zZt2vQhAMC5c+fulJSULJw5 c2YhUxp8Pl/Z09PjAABQXV29SCQSZTQ3N4sqKytlCIIQTIwCAQBoNBrvWbNm/dnf35/RenWPotPp PNavX7/KyspK98EHHxyvrKw0YTK3VWRkZFVkZOSXBw4cmKfT6arfeOMNxjOYh4WF3Q8LC/sS4Mcc YCYmJpc2btzIuLMIAKBWq72Dg4MTe99rtVrPkJAQxrOZX79+3V0gELC2RBwAICMjY0RNTc3a3/3u d6/3xkD85z//iWtvbz/8rFiV/kKSJGIwGCx7Rxn+9a9/ne+b9oEpTpw4EV5TUzM/ODj4f0zafRwI gugOHTo0YyjK+LyINDc3+9jZ2RUBAOj1egFBEManTp16XSKR1GIYps/Ozp5uMBgk48ePP3jixIlP RowYcaKlpWXM9evXXUUiUemmTZv279+/fwmCIJSpqWlVaWnpnOnTp/8sFKCpqcnX19f3m1mzZhUA AMTGxkbZ29v/oNVqUQAgm5qavGxsbMoqKytNcBwf8NQeSZIIjuPdDxw0uHfvntndu3dfnjZt2uEz Z86Mr6qqcpBIJPWNjY1imqYFFRUVNhKJpNDe3r7a3t7+f87OzoMa5ekPubm5Vu3t7dM2b978O7Y0 3N3dz+bn5/+1tLS01dzc/Ifo6GjGQ0wIgpDweLxOkiSR+vr6SGA4GF2hUPBjY2M/BgDQ6XT+va8D AgL2sVUer5d+r0QoKyvzNjMzKyFJEqmsrByPoqiOIAi7hoYGiVAorFiwYEHW7t27w3p6evjD4WB1 dHTMf+ONNxb0vh85cmRVQUEBoytNhEJhj0KhMLpy5Yo7j8drQxDE0NraapSTk7PCw8MjlikdvV7v lZSU9IekpCTg8/nyLVu2/Jcp273I5XIhRVEmFy9eDG9vbw8wMjK6xUbiUACA7u5uLwcHh1Q2bPey d+/edSRJirds2fI5WxoEQYwYN25cA8CPI6Y0TQue58n4WTQ1NfkYGRkxXqy7L3fu3Fnm4OBwpG+A KYZhrfn5+faRkZGMBNvfuHHDAcOwrqSkJJ+qqqoJRkZG19kIzsUwzGAwGKyDgoIYD0bvS0ZGxggU RZUmJiaMxHD8Gunp6fEaO3bs6aKiIvO6urq54eHhu2/evLnW3d09GwDA3t5ece7cuTdRFKX5fH7j A4ekOjg4uLGw8MdnYZVK5RwYGJiAoigZGBj42KkikiT5lZWVU3ft2hXp6up6Ta/Xi8PCwrKLioqs LC0ts319ffPT09PX1NfXyy0sLLIH2o+SkhIzqVT6MKbM1NRUS5Kk8ZUrV+YZGxvnRUVFFR04cGDy yZMnfycWi4uioqIqi4uLycLCwhhzc/MSDMNqnu8X7D+XLl36vZeX1+7BxkU9iaqqKuPi4uJ1o0aN +nt7e7tdU1PTDAA4wbTOxIkTLyYmJv75888/H02SpIlMJmN0ytzMzEz/5ptvbgMA2LNnz397Xw8F /XawOjo6PIOCgpLS0tKcCYKQSqXSEhzHO27fvu2l1+vtz549GwgAKBs3nGdRXl4uRRBE0/fJ+8aN G0EmJiaMFlkVi8U9JEka5+XlLQsLCzuUm5s7q7a2doROp3N++eWX7zKhcf36dQc+n1+6YMGCDwAA BAIBK4n1srKyPHk8XoNGo7FQKpWh/v7+rDkmGo3Ge+TIkV+yZX/fvn1rCYIw3bp1K2tZ2QsLCy0w DHuYLDY1NdWLrVGmrq4uHxcXF1Yy2Pei0+kc7ezsvu+jySMIwjUoKGjAuXmeRHV1tQ+CINrq6uqx Tk5ON6dPn87YaHJfFixYkPXRRx9p2Vok0ktubu5sZ2fn7+bPn8/KSrlfAyiK6mNjYzeQJGkUGBj4 zfjx4xvq6+uvFBYWzkAQhAgNDT0oEonqnJ2dlWKxuKawsHCakZFRfURERA2fz2+Lj4+f4Onpea6o qGg6iqK6iIiI7x+ns2HDhqOPfFTw4P+ukJCQSwAAISEhHz9vP/z8/Dr8/Pweatva2mq2bdv2sBLH 5cuXPfh8vkKv15tFR0fHAQC8+eabrI+g9nLixIlwBEHIBQsW3GZL4/r166ONjIwKp0+ffi8nJ6e9 sbFxPhs63t7end7e3u+2trYK9u/ff3jmzJmsXvuGkn47WAEBARfHjh3biGEY3d3dfdXCwqLd29s7 z8jISGttbb2jqalpxLp16/ay2dgn4eHh0YUgiKE3+/eDmm+/mzBhwj+Z1DEyMlLqdDonHMfbJ06c WFdYWKgqLy9/1c7OLoEpjcrKSh+JRFI42EDCZ9Hc3OxjZmZ29bXXXvvuzJkzlWVlZUsAgNHyOgAA BEGgFEWZeHp6slJW5YsvvnhVr9dbbN26ldWYJa1Wy0MQ5OGT4r179xb5+PjEsaTlHRISsoMN271I pdJbNTU1AQBQAQBw6NChzebm5qeYjAdSKBQ+jo6O8cuWLUtlyuaToGlawHYsk1KpDJg3bx7j09y/ JrZu3fozp2bJkiUZAPBwJVdvcPujTtIjU/usOOMD4fbt2za5ubkTTExMmqOiou70jb2bMmVKeXBw cC1T0+kDpaGhIWrq1Knb2dSIjIy8ceTIkUW9Zb78/f0ZL/MFALBjx47fkyRprNfrHcLCwv7GRtqG XoZy9ApgAA7WpEmTantfz50793HLcYe1PISLi8v/jh8//iGGYT0kSUqjo6P/wnTBWwsLix6tVhsW EhKyGgCAx+Op9Hq926JFiy4ypaFQKHx6enomffzxx94AAPb29idXrFhxhSn7vfT09Ph4eHicAgCY NWtW7ocffvi3viVemCIzM9ORx+PVPvubA+fYsWOT5HL5RpFIlPXxxx/vBQAwNjbO2bhx49dMa4WG ht5PT0+v+vTTTz8CAEwkElX1XUnLFA+mHoVsFqAGAJgwYcL55OTkdz777LPRBoPBzMTE5PbGjRsP MKmhVqt9vLy84pm0+SREIlHhnj17Nr755puM3wRKSkpMz58//7aJicnt4Rih5xge7t69G2VhYVGJ YRhx8ODBjzZv3vwOhmGQlJQU4OHhUefj46NIT093HDt2bENaWpprdHR0RWZmpoNYLNYTBIHJ5XLL 2bNnFzxbaeC8/fbb/2bDbl/s7e3V77333ga2dbZu3cra4pfhpl8O1oULF3z5fD4xZcoUVgPCBsPS pUt/AIAfEhMTAwoLC7f4+voynkzT39+/3d/f/2G6itdee+07APiOSY0HAcG7nvnFQfLOO+/8o/c1 hmH0X/7yl5fZ0ImIiKiJiIh4mw3bS5cuTQOAMDZsP45t27Z9xLaGWCwm33///UVs6zw4lv/MpsZQ XJx7YXN6+MEUxt/Yst+Lvb19oYWFBSO5ljgGj0qlclu5cuVxsVhM7tmzZ/SVK1d8qqqqImxtbe9c uHBhm7m5+X+ys7OX1tXV3W5ubo7SarXH2tvbHRQKhZ9AIGg1GAzis2fPokykHOB4MelXmgatVivW aDRCAIBz584F7Nu3j7VVC4Nl9uzZBX/6059eYyvwj4ODg4MNZs6cWTh27FjGYuA4BgdN03yxWEwC ACiVyiBTU9MuAKAXLlx4C8dxRX19vSmCIERHR4evWCyuqaysjF68ePElkiQlGzZsOCIUCtuFQuGQ 5Ibk+GXS73TEFEXhu3fvfuvOnTuHNBqNM4tt4uDg4ODgGDYaGxvFBoPB4vDhw9M/++yz/8hksnP+ /v5yvV5vGxsbG0WSpFFoaOh9rVbrLpPJ7hIEYSISie7zeDwaQZBep8wtPDyc8VJeHC8O/Y7Bqqys nNnd3b0AAIAkSZN9+/a9+jNjOK5Zv379kMRccHBwcHBwsMGDqhwHhEKhOjIyMq03JnLq1Kk7ysrK 3NeuXfsRAEBwcPCOl156qSwjI6Pey8urRafToePGjTsMADBq1Kj4X8NMSnZ2tszKykrJdlzor5F+ O1geHh5nurq6blRVVb2PYVg3W8kcOTg4ODg4hhOZTKZ9XDqOkSNHtvctW9Zb9mvChAkPi0/3TvP2 XRj2okKSJHLp0qV/8ng8+TvvvPP34W7Pi8aAKpauWLHiyqJFixZYW1tnPPvbHBwcHBwcHC8qBw4c WKjVasf09PTMiYuLmzzc7XnR6JeD5eTkVO/k5NQEAODj46NYuXLlY9MSlJeXS9PT0x2ZbCAHBwfH cJOXl2f5ySef7Ni1a9dmNuz3rafHwfFLICsry7a5uXkTgiB6BEH0lZWVfywvL5cOd7teJPo1Rfi0 QpJxcXERoaGhOZ6enl2NjY1mjY2NLgDAaskKDg4Ojl6OHz8+vqqq6lVnZ+dvH6TuYJzAwMC227dv p+M4zkoSRL1eL62trXVmOncfB8fzMnr06ObRo0dHHD9+PNzU1LQ9JiaG9WLqvzYGNEX4OO7fvz8+ Pj7++9jY2CgmGsTBwcExENra2nxdXV0PsOVc9dLd3e3t6OjISo1IiURyv7u7W8aGbQ4OjuGh30Hu X3311SKCIIwe/ZwkSVOKoizKy8s/b2lpSbC2tr7BbBM5ODg4noxKpfJ6Us06JtHpdC7h4eGMFMJ+ FHNz8+aqqioPNmxzcHAMD/12sNatW/fYenvbt29/HwBoqVR6wtfX91RbW5sdY63j4ODgeAYkSVr4 +fl1sKmhVqsxBEFooVBIsWHfycnpfklJCTeCxcHxK2LQU4RCobDZ399/w7Zt2z4SCAS6Z2/BwcHB wQyVlZUmGIaxUki8L5mZma4CgYCV0SsAAD8/vw6DwWDGln0ODo6hp98jWE+ib4FYsVisE4vFrF/s ODg4OAAAcnNzvcViMStxUX2pr6/3MTExuceyDM2yfQ4OjiHkqQ4WhmEkQRCC/hp7sAKG9VUwFEWh NE2zfjGiaRphW4OiKARBEFamHYYagiBwBEFIvV4/6JHRZ0GSJNsSAAA0QRAIj8dj7VgjSRJBEIT1 YxlBEJqiKFb3C03TQ3UsPzz9W1tbvczNzVlxfHrP/9jY2MjOzs6gsLCwQ0zaJ0kSBALB/ZSUFLeY mJjKwMDA/zFp/3khSXLAx8lQnI8Gg4H1c0Wr1aIIghiG4rxny/ZgefQ3HjNmTL5IJGI6Iz39PMfZ QDVYtv9MntrBOXPmVJeVlTkNVWP6S3l5uZ2ZmVlxaWkpazk55HK5EMOwHq2WlVXZfXVMHR0dCzIy MuzZ0tBqtShFUYROp2P15ldRUWG/YMGC5MzMTC82dSiKIgiCoNi8qKekpLj5+vomXrhwwYc1EQAw GAwkQRCsXgiSkpI8Q0JCbikUChM2dZRKpdDCwqLuzp07Nmxp9PT04GKxuKmlpcUcAIDP53ffv39/ 4r179xidXtPpdLTBYCABAJYvX37t7bff/r+JEycymn4mOTnZOyIiIqm2ttazp6cHj4mJYX0k7llc vHjRk8fjDbjgNJ/P76iqqvrZIiimqKqqMuLxeAqSJAm2NAAAkpKSfCdMmHAsMTExgE0dg8EwYIfF 3t6+/PLly84sNAcAAAiCQCiKIiiK0mu12oe+gbOzs1ImkzF2I8zIyLB3dXVNKywsdGHK5uOgKIrV Y6U/IDwe79j777//hyd94fz5866dnZ2uvQUsfwlIpdLamTNnVsXGxoYjCNLvEbaBQBAEsXr16ozU 1FTrhoYGPxRl3tkmSRK1sbEpmzp1av3x48dDSZI0ZlwEfryJz5kz53pRUZFpVVVVIIZhrDha5ubm 1dOmTas5c+aMp0qlcsBxnFEdg8GAUBRFjxw5MtvMzEx/7dq1MTiOYziOM+qgGAwGlMfjtS5atKjg 1KlT3hqNxo6NvhAEgYSFhWUJBAIyMzNzNI7jKBt94fP5LQsXLixMSkpyaG1t9cFxnPH6aA+O5XtT p05t6j2WWegLotfryQULFmTeuHHDvq2tzY1J+72QJIk6OTnl29raqq5fvz6Gx+MBG30RCoXy+fPn F5eUlEgyMzMnoSgqRFF02J66CYJApVJp+aJFiwqeZ/u4uLhxACBk4ximaVq7fPny64WFhUbZ2dmh PB4PYUNHJBI1vfzyyyUPzntbNvY7QRAQFhZ229fXVznQ7Y8fPx5IkqQFG9cjg8FAxsTE3BAIBHRi YuI4HMcxDMOYlAGDwYDiON65ePHiu+fOnXPv6upy4vF4jPsWer0efH19c+7cuTN7/fr1yUzb78v/ /ve/Sa+//vrJRz//4IMPPn2mg/X999/7aTQaOzZ+BKYxGAyISCRqnj9/fvHJkyd92bgxPtBBR4wY URgeHi6PjY2dLBAIcKanRmiaRnU6nWH58uU//PDDD/ZyudyT6YMd4Me+mJiY1MyePbvi8OHDkQKB AGV6GJ6maVSj0SAvv/zytaqqKklRUVEon89n/EZiMBgQHMe7XnnllTsJCQnBer2e8QsRAIBer0d8 fHyyDQYDWlZWNkogELBxjCFCobBtwYIFeUePHp2AIIiQrb5ERERkVFZWWjQ2NvqyoUGSJIjF4sZ5 8+aVPuiLgOkbF03TiE6no6dNm5aen59v09LS4sXSuY9IpdLaWbNmVQD8+ADa1NQ0CkEQnKKoQce0 DiN6mqapcePGpYwcObJnuBvD8XiOHj0ayePxeBiGMX791Ol0tIuLSw6fzydLSkrChELhz6YLB4vB YEB0Oh29atWqy8ePHw8DADM2+qLVasHKyqqstrZ24nA6WE+9IGg0GpQgiBErVqz4WdHLXyqnT5/2 Ky0tFQOAzfLly3PZ0omNjQ08efKk3axZs8otLCxYWT3Z2toq/P7770MAwGTZsmX5bGgAABw/fjz4 xIkT4rCwsHpfX99ONjQUCgX/9OnT4RiG4StXrsxjQwMAIDk52eP8+fNORkZGounTp7O2/+Pj4wMp isJWrVrFmsb58+d9jh07Nio4OFju5+enYEODIAgkPj5+NIqiAjbPl4SEhJHfffcdPmrUqPtsHWMP +jIWx3Hh8uXLc9jQAAA4fvz4KACoOHDgQBRN044eHh6FCILA5MmTa9jSHAoIgkAOHz48r7y8/NaC BQvKhrs9HD/l5MmTPoGBgY0BAQGspSSJjY31AwBYsWIFa/Y9I7EAACAASURBVOdPaWmp9OjRo6NN TU0Fs2bNusuWTlxcHKvTvP3hqfNeKSkpLj4+PjUAP+aBOXr0aPT+/fuXZGRkjBiS1j0H/v7+dWlp aVMCAgJq2NQRCAQoQRDGbDlXAABWVlZagiCMGB+nfQRra+tOpVLpxNaNDwDAzMxMLxAIUB6Px2pw 57Rp08orKyunTZ8+ndUbBIIgGI7jrAZpzpw58157e/totpwrAAAej0djGIYLBAJW94uTk1NrR0eH F5vHWG9fcBxHTp06FXLq1KmQvXv3rmdax9raWnHixAlfmqYd2tvbp1RVVY2sra19GHfYN35lx44d f3zc5710dXXxmG7f88Lj8ejXXnstqbm5OXq428Lxc1QqleWjzlVRUZH5Bx98cOLQoUMzmdBAEARD EOTh/aaurk7yySef/Lf336VLlwadDNfLy6urp6fHy9vbu6H3s6KiIvMdO3b88eOPP965f//+Vwar AQCA4/iwjyg/tQEPVgXRJEkiX3zxxT/c3d1P+vn5FVRUVLi1t7fLU1NTAy0tLVsnT55ck5WVZUtR FNrV1WUUExNTqlarscuXL/vzeDz99OnT2V7e/Nh2P+5v7e3t/IMHD/5faGjolxERETWD0Xmc39PV 1cVLSEiY09nZGUaSpNjV1fXYokWLnju7/ZOmUnbs2PEHvV5vx+fzm2xsbG7ExMRkmZmZ6Z9HA0EQ +kkrJj///PN/kiRpAgBgYmKSvWHDhqPPo9Gr87j9olAo+PHx8cu6u7uDAQCMjY1z16xZ861YLGZk WvratWuuFRUVoevWrTsBAHD27NlAhUJhu3r16kENHT+uL/v27VsbHh5+NigoqHUwtp/G3r17102e PPmkv79/+5EjR6aoVCqbweyXJxEfHz8RQRDqlVdeyWTC3hAs/H14jHV1ddkCAK1UKgPZ0JDL5WNk MlmbSqWqMTU1bbKzs2u+fPmyR3Z29lsSiaQEx/FuS0vLcp1O53TkyJGXSJLkKZVKR71eb75+/fqP v/zyy3+LRKJKNze3jGnTpg3p9fFZODg4lJ07d85p1qxZtcPdFo4n09raKkhOTt7C4/GabGxsqtjQ yM7O9hIKhbWbN2/ewYZ9gB8XlCUmJn44cuTInTNmzCiuq6uTsKU11PTrCfzkyZNjTU1N786dOzcn ODi4ZdGiRTcqKiosBQKBNicn55W8vDzL9PT09aWlpQFlZWUvJSYmjvz666830TSNGAyGX8wTGgBA fHz8apIkjauqqoLYsJ+QkDCHoijeli1b/rxmzZp3PT09y5nWUKvVmFKpHPfuu+9uGzt2bNz9+/fH xsfHL2Nap6ysTKrX6+3ffffdbe++++42Nm7iAADffPPN3/h8fteWLVu2vfXWW28LBAIFk3FNFRUV o/rGx9TV1Y1ja7m3QqGI8fT0ZDWruEKhmO7s7Ny1a9euze3t7cGrVq06xoZOU1PTJBzHn8tp7y+Z mZkObNi1srKqtbKyqjMzM0tnwz4A8Nvb272NjY0rCYLgAwDU19d7u7m5xS5YsOCgXq+35PF4Ojs7 u5MLFiy40tzcvBhFUS1N04KsrCwnmqZh06ZNX/3SnCsAAB8fnxq5XO453O3geDIkSSJHjx79/dix Y78iCMJm3LhxFWzotLS0eGs0Go8vvvhiTW5urhUbGmfOnJnH4/GaKisro2JjYyMdHR1VbOgMB/1y sDo7O+0tLS1/ksW4sLBwdGNjY4BGo/F4EKSGrF69OtnKyipHq9VKzM3Ni8rLyxcORY6f/pKTk2Ot Uql83N3dD3V3d7OSSkChUIyhKIrX0tIilMlk2sDAwDamNR5kla4CABg7dmzjvHnzvmxvb5/DtE5e Xp4Pj8drSU1NdU5LS2MlXUdsbGwkiqL6tWvXnhIKhZRYLCbXrl17msnAx56eHh8+n9+dmprqnJqa 6qxUKoNcXFwYv7E1NDRIEATRMjXy9jjKy8ulAIDs27fvExMTk8qtW7d+ypaeVqv1Dg4OZi11QE1N jVF6evpf2LA9c+bMwpkzZxauX78+ng37AABqtdp1xowZl6ZMmXInJCSkubu723Py5Mm5t2/f9jQx MSlva2tztra2rm9raxOKRKKCjRs3HnzllVc+trW17RCJRL/Y0SEMw6gXPGD/V88XX3yxwdnZOcnV 1bUdQRBKKpWykpLA3d09a/To0Z8JBAJFcnLyv9jQ6OzsHEPTtNDX1ze5rq5uRUpKijcbOsNBvxys 4ODgjIqKipcTExMD9u/fv0Sr1aIdHR3jTE1NawAAs7e379FqtQGJiYkBzc3NE93d3SslEolCJpOl yuXyX0wB06tXr745atSoL3x9fSs0Gg0rT2hTpkz5jCAI04MHDx7duXPnNjY06uvrfSUSyUMHAcdx GkEQxpfet7W1+VAUJczPz59TVFQUxbR9AIDW1tYwOzu7qwAAx44dm/zJJ5/s6Bu3wgRarda7q6vL Nzc3d1Fubu4ivV7vHR4eXs+kBgBAdna2h0gkKmXabl/y8vK8AQBDEIRYs2bNebZ01Go1RlGUxNXV lbUVZc7Ozsr33ntvA1v22cbExCQvISFhzbFjx35XVFRkIZPJsqysrHRCoVATEBBwZ/z48anV1dWj VSoV387O7vqePXteT09PD1WpVAIvL6/Lw91+jhcTpVKJK5XKUeXl5SsPHTq0j6Io4yNHjrzEhlZ0 dHRFZGRk9cyZM1MMBgMrtTINBoPFhAkT9kRHR1eIRKKyjo4OazZ0hoN+PaWEhobet7Gx+SQjI2OU l5fXTaFQSIWFhX2hUqkkEydO/NuNGzfcra2tj6vVapM5c+bsNTIy0peXlwutra3rY2JiWL3h9JfE xMQAtVo99u7du8Z3794FgiBcSZJEmF4iGhwc3BIcHLxbq9Xu/fTTT8/K5fIvmEzSBgDQ3d3tbWtr +3DqIzk5eZpUKk1lUgMAQKlU+gQFBX350ksvsRYwTlEUj6ZpFABg6dKlP5w5c6a7qqpqOlP2lUol TtO0YOvWrZ8AAOTm5lolJSV5sbE0WC6Xe7NdTqW1tdXXzs7u666uLr/9+/cvYWuEJiMjw613lJTj 8axbt+67vu974+76ni/e3t5HAAB8fHyuA8D1Pl+/PxRt5Pj1YWRkZHjvvffWAQB89dVXixAEoVau XHmRaZ3r1687qFQqEY7jhpycnOUWFhZnmdYAADA2Ns4qKSkJamhocFCr1X6TJk3azYbOcNDvYWAH BwfVkiVLHt7U+waIJyUl+QQEBGSOHTu2EeDHlQeLFy++/hgzwwJJkkhRUdFbc+bMWdY7ZffRRx99 efv2bbveNjPB6dOnRxEEwXd2dq7Jz88fJxKJCpl2rgAANBqNL4qiad9//31YU1PTaI1G47Z27dr3 mNbR6/WuEyZMqGTabl/c3Nwu3Lt3743z58+3W1hYdFZWVs40NTV9rkSHjyMzM9NdIBA8jE8oKSnx FovFrDhBPT09Xr6+vifYsN2LUqn09vDw+Do8PPz8rl279n733XfVCxcuvMW0TkNDgw+O44qUlBQv AAAXF5f7np6ejNYZ3blz59uBgYEnB7vYhIPjt4qfn98NmUzWzYZtrVYrKC4unkPTNCaTyTKXL19+ jQ2dhQsXfnPu3LmZTU1NY1566aV37e3t1WzoDAf9drC2b9/+/ttvv/3B4/726CrB77//fuu2bdse +93hIDc319rBweF433goJyenOIqiGF2abmZm1lFQUDCjsbFxkkwmuzVnzpy/M2m/F1NT06tyuXyk QCBod3BwuPHyyy/vZVqDIAjU2tr6OJvxRAAAc+fOzTE2Nv64qKgoprKykm9jY5M+f/58xgKTeTwe 4erq+nCkwcjIqNPExCSJKfu9aLVaVK/Xu0RGRrI6YmtmZnY7PDy8SiwWk/PmzXvvhx9+mA4AjDtY JiYmzWq12ra8vDwSAIDH411i2sHy8vJKCg0NbXj2Nzk4OB5HeHg4a+dPVFRUZVRU1Ods2e/F1tZW 8+ho8K+FfjlYBEGgFEWJe9/n5+dbpKWlLQIAdM6cOYebm5ult2/fnkPTNLZw4cIDAECmpaU5lZSU jF27du0JNqZjBkJISIg8JCRE3vezpUuXpjGtM3ny5JrJkyfvY9ruo7zxxhuH2dbg8XjUunXrEtjW AXh4IrPyu0VFRf1kBG7WrFmMjY71cvXqVbfs7OwNMpnstFAoZLXe42uvvfbwQuTt7d3p7e3NygrC hQsXZgFAFhu2e/klrqDj4ODgYIp+OVgZGRlOIpGopvf9lStX1q1atWp7ampq4LVr1yZ2dHQEvf76 65+KxWLy5s2b9lqt1r24uHjS2rVrY4fbueLgYJsHDuITy01xcHBwcPz26NcqwtraWh8LC4u+T5uo hYWF/v79+0FWVlZ1NE1jvVNJFRUV3mKxuAjDMC2Px2P1aZ6Dg4ODg4OD45dIvxwskiSF9+/fD9+1 a9fmlJQUb0tLyzs7d+7chuO4asaMGcUmJiale/bs2ZiQkDCWIAjRjBkzDvB4PHVqaqozy+3n4ODg 4ODg4PjF0a8pwrVr1z5aKboEAB4uC+0bF9KLh4cHazl6ODg4ODg4ODh+ybBarJaDg4ODg4OD47cI 52BxcHAMC6dOnQphq9oBBwcHx3DDOVgcHBzDQnBwcOn06dMPsGX/3r17Zl999dUituz3F61Wy11n OTh+g3AnPgcHx7Dg7OysZDp5aV+USqWgp6eHlaLuAyEuLm7WcLeB49dJTk6OdUJCwrjhbgfTHDx4 cPav4cHkhe8ABwfHi8nevXvXsWnf1NRUY25ufpdNDQ6O4eLQoUMzExMTv5PL5YHD3RamaWhoeGP7 9u2Hrl275jLcbRkM/S6Vw8HBwcEUaWlpThqNxolNDQ8Pjy4PD48LbGoA/DiKcP369bmenp6pU6dO LWdbj4Nj+/bt73d3dy8EANDpdDb79u179dHvSCSS+6tXr2a8LBhTtLe3Sy5evLjwCX9G9Hp9QFpa WnxHR8dbCxYsYLWqBFtwDhYHB8eQo1AozBcuXPjRcLdjENBdXV28gwcPvt3Z2bkYAFAMw7TNzc2u j34RRVHDMLTvuWlubpaKRKKO4W4Hx5OZMWPG3sTERBOVSvWSQCC4v3HjxoPD3aaBYmFhoXpSu//1 r38tQhBE5eDg8NmL6lwBcA4WBwfHMDB37tyc4W7DYODxePfLysos33rrrU9OnTqVWlNTM8/e3j53 9uzZjNe6HGoqKir8xowZc2a428HxZB7UIf3jkSNHLmm1WvPhbg/TiMXiWxMnTtw/evTo5uFuy2B4 qoNlbW3dKZfLXQCgfYjaM2iam5ulAoGgqbm5Weru7t7Dlg5FUbTBYEDYst/LAw1WY+WUSqUIRVEN mxoAAARBYAiCYGxq1NbWivl8fntFRYUxm/ufIAgMw1jtCpSUlJjiOK4iSRLY1EIQhCZJktVjuaOj wwjDMB3bfaFpGqVpmtXzRaVSiaKjoy+npKT8LiAg4MTChQtvAcAtNjWHiqKiIjONRoP4+voqh7st HD8FwzBNfX29aMSIEQ+v1StXrrzMpAbb5w4AgEKh4AsEgpaqqiqrJ12j33nnnX8OVockSaBpmtVa yCUlJaYYhj3xXEF4PN6x999//4mFag8cODA7KCioctSoUS3sNJE58vLyLO/cueO9du3a09988828 0aNHFwcEBDA+1J2UlOTZ1taGOTg4lDU2No6ZO3dulrGxMaPTAD09PfiZM2dG29vb32psbPSxsbFR TZkypZpJDQCAO3fu2BQWFo7w9fW9WVxcHDl37tybZmZmeiY1tFotmpiYGGxsbFza3d1tLpFIJDNn zrz37C0HRmlpqTQtLW3sq6++Gnfo0KFFkydPvuPh4dHNtE5iYqKfRqPpoWkaNTIyEs6cObOEaY3i 4mLTzMzMsIiIiDMZGRkz58yZc93CwkLHpIZWq0XPnj07isfj1SiVSitbW1stW8dYfn6+y+jRo69l ZWXNnD17dqaVlZWWSQ2CIJAzZ84ECYXCaoVC4ejk5KSYNGlSPZMaAAC3bt2yKy4udnj11Vcv3L17 V3rjxo0lpqamrR4eHuUikYjR/TOUtLW1SWtqajy1Wi29YsWK48bGxuRwt4njpxgMBuTIkSPz7Ozs mszMzNRM2tbpdFhDQ4OdVCq9x+PxDK2trSMdHByahEIho/e1zs5OUUNDg8OiRYvOnDx5MsrS0lJr ZWXVyaQGAEBtba0diqLNFEXRnZ2dISNGjKhEEITR2sgqlUrc2NjovXTp0i8sLS1/9jt98MEHnz7T wQIAOHbsWIhCofhZbAHbiEQiOYZhD090lUolo2n6iY+/fD6/08LC4uENor293Vmv1z91+BRFUb1Y LG7tfW8wGARardbyadtIJJJqExMTxYPv421tbT40TfOetg2fz+/i8/kPPV2VSmXztL4gCEJYWVnd wzDMAADQ2dlprdFoHAbSF5Ik+RqNxupp24hEIrmpqWkjAABFUVhLS4vvs/rC4/G6BQLBwycPnU5n QhCE8VP6QlpYWNzj8Xh6AAC1Wm3U09PjQVHUU0dNRCJRC4ZhBAAATdOISqWyBYAnboPjuNLKyqqs 931ra6uHwWB4YrsAfnwq7Btv8qy+AABIpdIysVisBABQqVQmSqXSbYB9QVUqlc3T+sLj8XosLS3L AQAoikJbW1t9KIoSMNkXFEVJMzOze3w+Xw8A0NXVZalWqx2fpvFoXwAAUSqVNvCUUVaBQNBmbm5e 17cvAMB/mgaKonqJRPLwWNZqtc/aL1TfvnR2dso0Go39QPpCURSmVqtl8JT90vd86UWlUpl0d3e7 Pmv//JJBUVRpYWFRIRAIdNHR0dW/ZAdLLpfzbty44cT04ISlpWXnxIkT2xg1yjDl5eXi9PT0SQRB iJi0iyAI7ebmdic6OroBAODSpUt2NTU1YRRFMTqiheO4dvz48Wne3t6qzs5O/OzZs+M1Gg3jU5yW lpZlCxYsKAIAiI+PD5LL5ZOYHs1CEEQfHBx8ctKkSa2P+3u/HKzDhw9PtbS01Dg6Og7pCBZN00hl ZaUdj8drkkgknS0tLYHu7u6NPB6PUY9arVYLy8rKnEaPHn2loKDAE8dxqZubG+Pzvk1NTeYdHR24 paVlVUdHh7+Hh0cD033RarX80tJS54kTJ166deuWP4ZhZp6ennUIgjB6YDU0NFi2tLQYr169OuXI kSNRMplMaWNjw3g+o8rKSjuSJBVisbhLqVS6eXp6NqIoyuhTSGdnp7i6utp+8eLFF06ePBllZWXV zUZfKioq7FEUleM4rlWr1S6enp6NfR8emKC9vd24trbWdvXq1ecOHDgwy87Ors3e3p7REVyappHy 8vIRANBqbGysUCgU3mycl93d3cLq6mrHl156KfnixYsT2TzGKIrqwHGcMBgMdu7u7g1Mny8vEgaD ASsrK3MUiURVc+fOLXv2FkPLqVOnAmiatnZ3d29g2rZcLjeRy+WmK1asuMS0bSaorKwUZWZmzlq+ fPk1NqbZL1265KJQKEgAMEilUlFMTEwl0xokSUJcXNykkJCQi7du3Zoxf/78dKlUSjx7y4GRm5tr lZeXZ6PX6wWOjo49MTExpUxraLVa9PDhwy8HBAR8Fx4e/rMwqmc6WHfv3pXK5XK/6dOnD9uJFhsb G0jTNLlixYpCtjRIkoTY2FhfoVAoWLx4MWvBt+fPn/dpbW0Vr1mzJpstjQcHsA+O48KlS5ey1pdL ly65dHV19ZiamhpNmTKlhi2d2NjYUARBdMuWLWMteLi9vV1w6tSpIB8fn/rx48c3saUTHx8fRFEU tWzZsny2NGpra8WXLl3yDwoKqgsNDb3/pO81NDRI8vLyXGbOnPlc51V8fHwQQRD0ypUr8wAAzpw5 ExwREVHI5MVSq9WiR48eDXN2dpb3PcZ27969Ua1WewkEgqatW7d+PFid+Pj4QIPBgK1YsYLLmfWA uLi4kcuWLbs63O14lKNHj77E5n7Kzc21amho0M+aNYtx52KwHD58eOIrr7xSKhQKGX3I7EtcXFwA AEDv9bampsboypUrL6nVapsRI0bcnDdv3qB/e5IkYf/+/VFhYWHFvdeokydPhjY2No7h8/md48aN Sx45cuSg475PnDgR1NXVJVu3bl3KYG09iZ6eHvzo0aPhb7zxxslH//bBBx98+tQg99raWis3N7dh DXDHcZx+dGhPLpcLT58+vaDvZyKRqG3VqlXP9UNiGAYYhgGK/v/R0KKiIvO8vLyAZcuW/QAAUFhY aJGXlxe4fPny577oWFlZdTY3N8v6fnb16lU3jUYj6r3RHTp0aObEiRPT3dzcnit26EE/EB7v57N8 zc3NopSUlMienh4XIyOj2vnz56c87w3RxcWl7erVqyODgoIeOgsnTpwI9/PzK/Hz8+sA+DGY8fTp 0y+9+uqr555HAwDg0aD4pKQkn7q6ulEIgpCWlpYVc+fOzcYwbFAjDhYWFjqdTmfj6+v7E4f0wIED 81xdXXMjIiJqSJJEjh49GrN69erk59VBURQQ5OezT+fOnQtoa2tzXLNmzXmAH4+9jIyM6ZMmTbrg 4+OjGIiGk5OTWq1WO4aGhv5safODmKuxdXV1MyiKkjg6On4/mL7gOP5wBK69vd3pyy+/fI3P5ze4 u7ufY2I1nVAopAiCMHd2di7u2wd/f/+kyMjIfR9++OGBrKws28GuNMJxHKVpmltR3Qe2F3A8LxiG sbqfgoKCWvPz870A4BfnYKEoCmw6V4+joKDAlc/n9zg4OBTfvXv3PXNz879PmjSpdjA2HxxbAlNT U1XfzwMCAs5XV1cHJCcn/3XkyJFbB6PxAISm6YcX3OTk5MC6uropCIIQ5ubm+QsWLEjt++Xy8nLT +vp626ioqH7HBxsbGxv6+g2P8kJeVCiKQqysrEofvEZLS0v/YGtrG8ukhqenZ+eZM2deLy8vzzUy MtKfO3fuP2PGjBn00/Kj2Nradpw6dWrntGnTVn/11Vcr9Xq9qZub23mmdXJzc62SkpI+s7a2PuXt 7X2xqqoq9NKlS8ELFy5kLMeIXC4PIghC6OfndxUAID4+fhmKoowG/t67d2++iYlJqVQqbSwrK1ub kJAgWrJkSTqTGgAAra2tgsbGxo1dXV0/REREfHDjxg2HlpaWaAB4bgfrSZSUlLyi1WoDSZK8gGEY nZKSskmpVEZJJJLTTGl8880381taWuaamZldnjp16o7AwEBGY01+97vfnQaA02lpaU75+fkz/vOf //zB3d39y8WLF19nUkcoFFKRkZHVR44cmcLj8ZqZXsZdUlJi2tzcbDZhwoTau3fv2piZmal6y/nk 5ORY83g80t3dXXHhwoVRDg4OjS/6MnKOF5NPP/30E71e72xnZ/ftYB5gn8Xs2bMfPkDn5eW1d3R0 WADAoBysxzF//vw7AAD19fUefD6flXOqoaFh/Lhx444EBAS0AABcuHAhWK1WmymVSoeFCxfGpqam riIIwhrH8YNarVbc2NgY5uHhcS08PLz6xIkT0zUajd28efOODGQR2HM5WCUlJaZ3794NWrZsWerz bD9YbG1tNfPnz79DEAS6c+fO/5PJZMcfXOAZg8fjUba2tsdSUlKWqtVqTw8Pj28iIyOrmNQAAPDx 8VFcvHgxb+fOne9TFCXetm3b+0xrAABcvnx5i4uLy9d9nBHGM06bmppWdHV1uQLA1cLCQguFQhG1 devWn2UYHgxardZ78eLFO4yNjfX79++fZ2RkxPgKFACAW7dueUokkgydTudIEARaXV3tI5FIGF8t CACg1+tdJRLJ9Vu3btl3dnaaIAhCYhgmd3R0VD176/7h4OBQ3NXV5dvV1RWWlZWl4/P5lwY6OvYs bt26ZVdYWBitUqn8JRJJjqOjI+MXYgCA7777bkxLS8uEN998869M2v3yyy9X8ng8JQAAn88ncnJy ZkVERCRotVpUKBRSKpVKIJPJuuPi4maJxeKOwsLCMLlcXv1ryH3F8WKxdevW93bu3PlvGxubIRlp 279//ysYhqmYmCJ8HImJiSMLCgp+DwD4q6++upYNDa1W63Lz5s0lN2/ehKioqMO1tbVzXFxcThsM BlF6enoAhmGqiIiIzzo7OyUlJSXzJk+efCA1NXU9n8+PbWtrm7J06dI/D3SF/XOtEEhNTZ2t1+vF OTk51s+zPRMQBIHu2rXrH1KpNO+11177jg2NV1555YJCoZhjaWmZxmY2WUtLy7tKpXLK2rVr/zHY 6a7HoVQqca1W68/GSE9fHBwcytVqtSsAwMWLFzd5eHjsE4vFjAVyK5VK3GAw2B87duyve/bsieXx eG2zZs1i5ebW3NzsY2xsXCKRSArOnz8fpFAovC0sLBh3sORyuRB+DCotqqmpcS8oKHjD1dU1ic/n 1zCpExMTU/L222//e/369b8XCoWKxMTEv+zZs2cDU/Y///zz/0tPT99oZWVV/Pbbb7+1ZcuW/44d O7bx2VsOnKampjFjxoz5hunpkq6urrFWVlZVa9euPTV+/PgGjUbjmpaWNnf37t2ftLa2Cu7cubME AEAul7/c3d3tIJfL59TX14cN53WQ47cJj8ejdDqdW3h4eAWbOiRJIrt27dqs0WjsNm/e/A+2dGbP np3/5z//eZVYLL576dKlSWxoYBimXrdu3a5169btcnNz60IQhJg2bVqeWq22sbOzazIYDOYeHh6d JSUl43Ec77p9+/YUc3Pzu7W1tT7Ozs7xz5MmZ8AOVmxsbJS3t3f6ypUrk27duhUz0O2Z4MFO/5uJ iUnhunXrEtjSEYvFJIqi6mXLlp1lSyM9Pd2xrq5upVgsvnH16lVWinZWVlaaoijKeuLAcePG1er1 eoeLFy96GgwGk0WLFt1k0n5mZqabSCTK+sMf/vDe+++/v1ilUo2uqqp6akqF56Wnp8fHxsbmnpub 29WampoojUbj7ePjw7iDlZWV5SkUCsscHBxKqqurOQ55BQAAGaVJREFUXzc1Nb3Z2dlpY2RkxMpo mZmZmX7lypWX3n333XfefPPNL5my+8477/zt97///V8WLVp0k8fjsRonguO4csKECYznuJozZ85f mpqaAj799NNPAQAQBDFs3LjxgEAgqNfr9RgAoB4eHl0ikaho/fr18SKRqHTjxo0HgoODf/E5Ajl+ XcjlciGCIAQbK/D6amzfvv1jkUjUtGXLlv+ydV73XsNramqM1Gp1kKWlJePndm5urkyn03l89dVX mw8dOrRKoVDwe8NX9Hq9LDAwsAVFUVVcXNzLjo6OOXq93pqiKIGlpWVdZ2end0BAwHPlbRzQFGFe Xp6lVqs1iYiIqAEACA0NvfTtt9/GPG9w+fNAkiSyc+fOvxobG5esW7fuBJtaVVVVxgiCqNkKLCwp KTHNyMj4V2Rk5J8pikLS09PfA4DbTOsEBga2XbhwQXvlyhX36Ojoirq6OklhYaHTjBkzip+9df8R CoUUgiBUTk7O1gkTJvyHSdsAAI2NjT7GxsZFAAApKSleKIp2u7q6spKtXavVeo0ePbpcJpNp8/Ly /kBRlISJlS2P0tzc7GtsbFwaHh5eVVJScnP58uXHv/nmm8329vYZTGv9GtBqtSiPx2M8eaxGozGz trZWTZ069ezp06e97t27ZyYUChsAAAwGgxGO4xSCIPrGxkYxhmG9SR5Zz3rNMTji4uIihiuUhU2y srI8hEIhKw9hvVy5cmUsSZJShUIR/sknn4RLpdLbr7/++jGmdU6ePPknkiQlNE0LHRwcjjB9XwIA CAoKkgcFBS3r+9n69es/BwDYsGHDfwAAXnvttX29fwsPD/+wo6NDKJPJNJGRkc+d4mFADtaNGzdm GAwG0eeff/4vBEEMAEBiGKZuaGjIcHBwYCxe5GmkpKT46PX6EQqFQvbxxx9PBAAQCoWVW7Zs2c60 VnV1tczMzOwK03Z7uXTp0kp/f//PeqdSsrOzS3NycqzZeCIeN27cv3NzcxdlZ2fbIwhi8PX1PcS0 BgCAiYlJJoZh2vHjxzOep8ZgMAi6urpGf/rppyPFYnHZxIkT/8G0BsCP088CgaBcJpNpAQBMTU1T 9Xq9BRtaFEXxXF1d7xoZGRk2b968EwAAQRAqODiY1Yvni4pQKKTWrVvHeEgAQRDiY8eOreXz+Yqo qKjdKpVK4OXldQkAwNbWNr2trU3s7u5+UaFQiDw9Pa8AANjY2GQePXo0esWKFaxdIzien7S0NKey srLPt2/ffvrtt9/+13C3hym++eab+R0dHWMoihKxOcDxwDFNZcN2X37/+9//mW2NgcLj8WiZTDbo 8nEDcrA2bNjw7fHjx8OdnZ0Tx4wZ0/TVV18tZONi9zRmzJhRPGPGjHVDoRUdHV0RHR3N2hz3W2+9 tftp75kkIiKiJiIi4lO27PeyadOmr9iyvX79+uMAcJwt+73weDzqnXfe+Xvv+zfeeOMwW1obNmw4 8uhnmzdv3sGWHsfjMTExaVy6dOmpRz6+DwCwdOnSNACA3vQj/v7+7QAAS5Ys4UYZf8H88MMPXwIA 2t3d/fK5c+dOsxWvOdRYWVlVmpmZ1QEAmJmZMV4KjoM5Xsg0DRwcHBwcHE9i165dW0iStHnwFrl7 9+6OWbNmRQ9roxhizpw5ecPdBo7+wTlYHBwcHBy/Kh5Mt+/8+OOP9/7xj3/cNNzt4fhtMmAHC8Mw Q05OTnRRUVGXXq83Y6NRHBwcHMNNbm6uVVBQ0GMLuXJw/FaoqakxEolEht6YVI7+M2AH60Hmb9Zy QnFwcHAMN3FxcZPb29sDnJyc9g80uSAHx6+JW7dujTQ1NW1no2Dyrx1umTEHBwdHH/Lz8y30er3R yy+/fDAhIeHl4W4PBwfHiwnnYHFwcLxwxMbGRrJl+/r16zOWL1+e5ODgoLKysqo4c+ZMMFtaHBwc v164IHcODo4XisuXL3u0tbUFAcA1pm0fOnRoJoqixIEDB5YCAOA4ru7s7BzZ2NhYam9vr37W9hwc HBy9cCNYHBwcLxS5ubmro6Ojv2XDtp+fX7ZQKFQgCGKQSqW1SqXSOSQk5DCKoozXCOVgn8DAQNZy C3JwPAvOweLg4HhhSElJ8eLxeO29yT6ZJiws7L6ZmVmTk5NT7pIlSzLEYnF9REREja2t7aCzOnMM PdOmTeMqInAMG9wUIQcHxwtDQUHBmunTp7NekYCD47fO7du3bZKTk7+lKEr04H3nK6+8ssLDw6Nr uNv2osCNYHFw/MrJzc21unz5sgfbGlevXnVjUyMpKcmHz+fLe0vWsIlGo5FUVVUZ0zTNPYRy/CYJ Cwu7L5PJDtA0bUTTtJGjo+MezrkaGJyDxcHxKycjI2N+c3OzM5saRUVF/g0NDe5sahQWFq6ZOnUq a3Uhe/Hy8qrr7u62ysjICLewsKhiW4+D45fK2rVrjwuFwlsSieQSW0Wlf8089ekMQZChasdvhqH6 TREEYT0od6g0aJqLLx4Ij+4XFEX1K1euvMSmxvLlyxlf0deXxsZGsUwmu+rj46Ng2vaDvjzsj6en Z5enp+dv/WbySz3pfqntYh2apofk5tH33MYwjJ46derfJRKJjmEZ2mAwYAzb/JkGy/afyVNHsMaN G1dbXl4+Yqga8zhIkqQJgqBIkmRNQy6XCzEM0xgMBlZ3SGNjoyWO421s9wVFUZVGo2H1ZCwoKHD2 9/fPKC4udmBThyRJgqIoVvdLfn6+hbm5ec7Nmzed2dQxGAwUQRAUmxo3b960kclkNy5cuODV+9nG jRsPMq2j1+sRvV7P6jFWVVVlZGxsXFZcXOxgb2+vZusJWqfTURRFEWzYflFhe98+L2zvp4sXL7p6 enreY1PjeXF2dr538eJFV7bsa7ValKIogqZpXU9Pz8PBl5CQELm3t3cnUzpXrlxxcnFx+SEvL8+F KZuPgyRJA5v2+wPC4/GOvf/++3940hcSEhKC9Xq9jMfjDXljDQYD6eLiUmhra9uTnp4eLhAIMGDY K6VpGtXr9eTChQuvpaWljWhtbfXk8/lMSgAAAEVRtFAobPbz86vOysoah+M4yvQIEE3TCEEQxIoV K1KTk5OdW1pafIRCoQEY/s0MBgOK43j74sWLs7///vuRBEFYoyjK+AVZr9eDTCYrMTMz6ykvLw/C MIzHtMYDHc2KFSsyvvvuuyCDwWDJQl9ovV6PjBgxolAgEOiqqqoCcRzHEQRh1NmiaRo1GAzKZcuW 3Th27NgYmqalOI4z7tDp9XrE1tb2nkwm68zPzx+NYRjGxrGs0+l0q1atShuKY0wgEBD19fV+PB7v F+lYDBUPriGIq6trdnh4OCsrNQfDDz/8YNvQ0ODLxn6iKApQFFUsXrw4m2nbTJGQkBCg1WrtSJJk +iZFA4B63Lhxt1AUpa9fvz4GAMQ0TTMaRoRhGCEQCJoWL16cn5yc7NzW1uZB0zTjI1kIgmiDgoLu XL9+fd769euTmbbfl//973+TXn/99ZOPfv7BBx98+swATjc3t6r8/HxzDMOG3MFCURRqa2t9a2tr gcfjkRRFkTqdDgkICMgZNWoU48F2MTExtQBQ2/ezCxcuuHR0dDgzcaPSarWW2dnZlhiGGWiahoFO fZEkCTRNG2bNmnXLyMiITEhICKEoyqjvzQ1FUYiLi5sM8GOSRIOBnd1mMBiMenUAgKAo5gdmUBSF 1tZW19bWVoAfh5RZqQmHoig2FH1pbGz0fPCWYqsvAMDv0xcdG/sfRVGQy+VucrkcAIAkn39IVr14 8eI7SqUSu3DhQhhN03wM+//XWj6fj8THx7O6X3Ach/b2dleAHwvZUxQFBoMBsbS0rJk2bVoN44KP 4fvvv/fTarWWffs+XJAkCRiG9TyPc3X69GkvpVJpi+M4o842SZIgkUjuz5s3r3T06NHyxsZGJ4Ig BEz/Xnq9HlxcXGoBANLT0y1ra2sDmH5AefD7qufOnZstEokGbLu1tXWkSCRCEARhYxrE+MaNG3NY sPsQvV6PqdVqCQDkd3Z2WvF4PMAwjPG+EATBq6urs2La7kB5poNVUFAQtWbNmvShaEx/OXr06IRR o0adZ1vn8uXLthiGWa9YsaKAba3+0tXVxTt9+nQ0hmGqqVOn1nAVzjleVNrb2/nx8fETaJrmzZs3 r9jY2HjYh/R7uXjxouvly5d1U6ZMaWZT58SJEyP9/f3Vvr6+RWzqDAS5XC6MjY0NX758+fX+bnP6 9GkvBwcHXmhoaCEbbbpz547N6dOnvXp6ehzmzJlTLJVKWZkqjI+PD62trU2tr68fu2LFiptsaHR1 dfESEhImrlq16oeBbHfs2LEQb2/vsqioqGqtVovGxcWt02q1znZ2dufmzZuXyUZb2SAhIWHU8ePH /aRSKW/69Ok5dXV1EkdHRxXTOrGxsUFM2xwoTx3+S0pKcvDx8akYqsb0Fy8vr7rz5887sq3T3Nzs HhMTU8m2zkCQSqWESCQicRwXcM4Vx4uMhYWFHsdxvkAgwH5JzhUAwEsvvVTV3NzM6qpIAACSJM19 fX0Zi29hAplMpkUQRDiQbVQqlU1oaOh9ttoUGhp6X6VS2aAoymPLuQIAmD59el5iYuKymTNnsjZN KJVKCT6fP+D0H52dnY5RUVHVAABHjhzZamRkVLN06dK/19bWrmNjdJctgoODy1tbW8M8PDya6+rq JEeOHGE8RhQA4Jcw3f9UB0ur1QqFQuFPpjLUajV29OjR6P379y/JzMz8SYDz7du3bbRaLfrgCYi1 YqwCgUCv1+uZD5TqJ99++22MVqtFe1+TJIncvHnTfgibgAzFCj4ODrZB0d92ppjHncfXr193+Prr rxd+++23MUqlEn/cteXYsWOTGxsbxWy1a6DTb0MxvYlhGKAsHzBSqZQgSVLMphMHMLjfq7y83FSt Vgf8v/buPqbpO48D+PfXX399tgJanRSqRZ4EH+pRJociwVOgIeIDwd059xCNHtm87cyy2yVmt93t uD9u2aJ3p+dm7iJiZkSHOkeMYcwbEFCsPChQdGtBaClYCpTS0offw/1xw+N82FHWHz8Kn1dCUkrL 911Kk8/v+7hr165r4eHhPh6PN3b37t1FQYw3bVQqlevw4cO7uM7BloCqaIqisOPHj/8+Li7uQnJy 8t3vvvtueXNzs9fj8QhsNtsCg8Gwt6en5wxBEF6fzydjKzSXLl68mGKxWHbX19d/m5WVZRoYGNA2 NTW1VFdXvz0yMnI8Ozv7PtcZAQh11dXVS10ul0Sn0xkMBkN4a2trgkajMQiFQpKN4YSZ4sqVK6uM RqMuIyOjpKura6ler49qaGj4dX9//6nY2Nhup9MpHhoakvf19W1QKpUBDTGB2aG1tXWlRCJ5NG2F JElFfHz8jFuQAAIssC5cuPDTiIiIW9u2bWtGCKG1a9c+PHr06CGBQDCUkJBQg2GYRygUenp7e5PU anUTO5G54/f7eZ2dnbkxMTGfdHd3J1AU1YlhGGO328MEAoFVKBSyNXEZgDmDoijs9u3bv2AYhtDp dB+0tLQkMwyDV1RU/FIul3dkZ2dXRUVFzcoi6969ez8vKip6TyaTkSkpKf1Go1F+69Ytj1Ao9H7z zTc7aZoWaDSaK7A33Nzl8/lkBEEMIIRQXV3dMoIgzGKxmL29f8CUBdTdOjIyEqVQKDon3kdRlPzA gQMlq1atMotEIkteXl6ry+VSp6enz7odkEtKSnZQFCXv6+tb53A4Eurq6qLFYnHP8PBwRGRkZE1m ZmYX1xkBCHWlpaW6pUuXfkXTtBAhhOx2+4q4uLh7fr8/QqFQdAqFwhk1XyvYZDLZo9fncrkImUx2 Lzc31+DxeJ579dVXP1WpVIN8Pn+Uy4yAOwkJCU1OpzNNr9dHNjY2/ioxMfEk15nA0wXUg6XRaKqr q6uLrly5wlit1uR9+/adwzDMj+M4Yzab51MUJWlpaVlI0zRfIpHMqoq6q6tL5nQ64woKCv6IEELl 5eWHu7q6EhUKRYfT6VzEMAzParWKlyxZMsZ1VgBCldVqFff29u5xu92VXq831uFwED6fb5FWq+2r ra21b926dcas6GWDSCQyl5aWZkul0kGfzydSKBR9JElKDQZDOIZhjEwmIysrK1fPnz//HtdZATc0 Gk1/d3d3SVNTU2FiYuI/N2/ePGNWoIL/FVCB9f3hjx/W1dX9JDExsd7v92Pr1q07jdB/hguHh4fL GIbBtFrtGXbicmdsbIzQ6XQnYmJinAghlJKS8sm8efPG1Gr1oFgspq5fv57IxqaOAMwl5eXle7Ra 7fuxsbHWq1ev8m/cuLF8fDiMJMn5NTU1qoyMjG6OY7Lm4MGDf6+srIwbHh5ekJGR0ahUKt0Mw1xD CCGtVluKEEJxcXEP5HI5FFiTcPLkycL9+/ef5zpHsOXn599ECN3kOgf4YQEvFVWpVC6VSvVoX6z0 9HTz+O2srKzOpz8r9D1+BtrjrzUvLw+uIgD4kZKSkr4a/2xt2rTpAoZhjEQiKUUIoaysrL+Ojo6K uU3Ivi1btnyLEPp2/PvNmzeP3x5CCKGVK1fChOZJ8vv9s3KxFQgNARdYAADAlokXLuMXNePnoKWk pPRzlQsET3Nzs0Kj0di4zhFsbW1tEWq12jHbpseAqZvbm9AAAACYFmazWfrxxx+/V1VVdZDrLGy4 fft26pEjR05//fXXy7nOAmYG6MECAADAqs8///z59vb29ymKWiKVSivLy8u1jz+GIAhvKCxiqK6u XjowMPDEOXdut3uxz+dLqqmp+ayjo+PE3r17S0QiEczLncOgwAIAAMA25vsvhBCiCYLwPv4AgUDA 6u7pwSIQCMin5Z9wADNFEMQoQRCwWdkcBwUWAAAAVhUUFNxKS0srLCsrO0TTNMF2T1VZWVl6T09P LkVR8o8++ugPBEEMvPHGG38Jxu9OS0uzIIQsj99/+vTpSKFQ2LRx48bfrV+/3vyUp4I5BgosAAAA rFMqle5Dhw4Vt7W1RbDdVmZmZuPJkyffIUlShRBC8fHxh9huMy0t7YZara4kCAKGBQFCCCa5AwAA mEbJycmDbLexePFiz5o1a95FCNEymaxi9+7d/2K7zfj4eAcUV2Ai6MECAAAw62zduvWOxWI5smXL lstcZwk2o9E4v7Gx8fnCwsJKrrP8WGfOnPnZ4ODgKj6f70hOTr7+tCPnjh07tn/fvn3/CLVFA1Bg AQAAmJWKiopKuc7AhtbW1mSapvGqqqoVQ0NDS5xOpyo3N7dsZGRE2NDQkE3TNPHKK6+ExIkqDx8+ XP/mm29+YLFYJOfOnXsvMzPzN7W1tdF37tzJjoyMbNq+fXuj1+tdFGrFFUIwRAgAAACEFLvdviI6 OrrDZDLpcBz3hYWFGevq6p6vqanZvWzZslv5+fllXGecLIZhcBzHGZVK5WIYRtDR0RF28+bNvRs3 brzU2dmZ43A4iAkrNEMKFFgAAABACPF4POrU1NQHFEWJduzYUetyuZ5bsGBBb2pq6nmDwbDjiy++ 2MV1xskwmUzzcBx3I4SQ0WiUMwxDGAyG5Twez19fX581b968+42NjdFSqbSL46hTAkOEAAAAQAhh GIaP4/ijfbbcbrdapVJdu379+h6RSGQViUQDXOabrKamphUejyfmyJEj75AkGbZp06YPFArFqMlk 2k7TtDAiIsL44MGDFYsXL+7gOutUQIEFAAAAhJDXX3/9twghVFRU9CeEEDpw4MCfEUIoJibmOJe5 AlVQUNCAEGp4/P633nrrXQ7iBN0PDhFKJBKP2+0WTVeYyfJ6vQKhUPjETroAgNBC0zTGMDNzw2uG YTC226BpekZO0yBJMqDXTlEU628iSZIYwzCszsWx2+1CHMddDoeDYLMdiqIC/t+SSqX9N27cULKR Zzq1tbUtk8vlbSaT6YnjhoKJpmmGpmlWP8MtLS0LcRx3PuvnP9iDlZOTYz516tS61NRUC47jwU83 RR0dHUtfeukl1s+sioqKun/16tV4nU53n+22JstutwvdbjdOEITLbDZLo6KiXFxnAmAqLBaLhCRJ L8MwxNDQkCA8PNzHdaZxFRUVidHR0ffYbocgiIHm5maFRqOxsd3WZJlMJhlCaCyQ58jl8t7a2lrl hg0bntjhPBhqamqi5HK5xeFwRNtsNpFCofCw0c61a9c0O3fu/OzLL7/MfvHFF+vZaMNms4l8Pl/A xwK9/PLLdceOHdtvMplsBEEE9P7MFGNjY7LR0VHJa6+9Vnr27NkNFy9eXCUSiYLeWTIyMiKVyWTd AoHAcuLEifyIiIheDMOCehHg9/tFg4ODyj179nz6rMdgBEGcPXz48NvPekB7e7tMr9enTBzv5RJN 00xKSkpTUlLS6HS0V1VVFdXf36+ejqvZycBxfGzbtm23xWIxff78+TU+n28+15kAmAo+nz/6wgsv NI6NjfEuXbqkpWl6pvSWYwsXLjTm5ORMy3Enly9fjh8dHV2C/ntWH6cEAsFQYWFhwBewFRUVMcPD w1EsRMLCwsJ68vLyTCRJYuXl5Wv9fr8s2I1QFIWSkpLuaLXaYb1eH9be3r6ajY4FgiBcO3fubOTz +VN6v/V6fZjNZgv6658OSqXSsXr16kc9Pv39/YTVahUHu52VK1c6J/59KysrI0mSDGpvcXh4uDst Le2Zm+YWFxd/+H8LLAAAAAAAMHnFxcUfzsjxfwAAAACAUAYFFgAAAABAkEGBBQAAAAAQZDyapnGn 0zlzlggCAAAAAIQop9OJ0zSNYzwebyOGYQd5PF5InvUDAAAAADBT0DSNMwzzt38DZi0JQnVxOWYA AAAASUVORK5CYII= "
       preserveAspectRatio="none"
       height="511.23462"
       width="1783.3766" />
  </g>
  <g
     inkscape:groupmode="layer"
     id="layer2"
     inkscape:label="Layer">
    <rect
       style="opacity:1;fill:#ffffff;fill-opacity:1;stroke:#000000;stroke-width:3.86159158;stroke-linecap:round;stroke-linejoin:round;stroke-miterlimit:4;stroke-dasharray:none;stroke-opacity:1"
       id="rect4148"
       width="75.852692"
       height="75.852692"
       x="246.2281"
       y="178.43988"
       ry="14.480968" />
    <rect
       ry="14.480968"
       y="262.01132"
       x="268.45148"
       height="75.852692"
       width="75.852692"
       id="rect4150"
       style="opacity:1;fill:#ffffff;fill-opacity:1;stroke:#000000;stroke-width:3.86159158;stroke-linecap:round;stroke-linejoin:round;stroke-miterlimit:4;stroke-dasharray:none;stroke-opacity:1" />
    <rect
       style="opacity:1;fill:#ffffff;fill-opacity:1;stroke:#000000;stroke-width:3.86159158;stroke-linecap:round;stroke-linejoin:round;stroke-miterlimit:4;stroke-dasharray:none;stroke-opacity:1"
       id="rect4152"
       width="75.852692"
       height="75.852692"
       x="182.73717"
       y="262.01132"
       ry="14.480968" />
    <rect
       ry="14.480968"
       y="262.01132"
       x="352.73721"
       height="75.852692"
       width="75.852692"
       id="rect4154"
       style="opacity:1;fill:#ffffff;fill-opacity:1;stroke:#000000;stroke-width:3.86159158;stroke-linecap:round;stroke-linejoin:round;stroke-miterlimit:4;stroke-dasharray:none;stroke-opacity:1" />
    <path
       style="opacity:1;fill:#ffffff;fill-opacity:1;stroke:#000000;stroke-width:3.86159158;stroke-linecap:round;stroke-linejoin:round;stroke-miterlimit:4;stroke-dasharray:none;stroke-opacity:1"
       d="m 56.503857,262.01132 85.462183,0 c 8.02246,0 14.48097,6.45852 14.48097,14.48097 l 0,46.89076 c 0,8.02245 -6.45851,14.48097 -14.48097,14.48097 l -85.462183,0 c -8.02246,0 -14.48097,-6.45852 -14.48097,-14.48097 l 0,-46.89076 c 0,-8.02245 6.45851,-14.48097 14.48097,-14.48097 z"
       id="rect4156"
       inkscape:connector-curvature="0"
       sodipodi:nodetypes="sssssssss" />
  </g>
  <g
     inkscape:groupmode="layer"
     id="layer3"
     inkscape:label="Layer 1"
     style="display:inline">
    <text
       xml:space="preserve"
       style="font-style:normal;font-weight:normal;font-size:180px;line-height:125%;font-family:sans-serif;letter-spacing:0px;word-spacing:0px;fill:#000000;fill-opacity:1;stroke:none;stroke-width:1px;stroke-linecap:butt;stroke-linejoin:miter;stroke-opacity:1"
       x="70.071793"
       y="309.72842"
       id="text4160"
       sodipodi:linespacing="125%"><tspan
         sodipodi:role="line"
         id="tspan4162"
         x="70.071793"
         y="309.72842"
         style="font-size:30px">Ctrl</tspan></text>
    <text
       sodipodi:linespacing="125%"
       id="text4151"
       y="309.72842"
       x="209.47284"
       style="font-style:normal;font-weight:normal;font-size:180px;line-height:125%;font-family:sans-serif;letter-spacing:0px;word-spacing:0px;fill:#000000;fill-opacity:1;stroke:none;stroke-width:1px;stroke-linecap:butt;stroke-linejoin:miter;stroke-opacity:1"
       xml:space="preserve"><tspan
         style="font-size:30px"
         y="309.72842"
         x="209.47284"
         id="tspan4153"
         sodipodi:role="line">A</tspan></text>
    <text
       xml:space="preserve"
       style="font-style:normal;font-weight:normal;font-size:180px;line-height:125%;font-family:sans-serif;letter-spacing:0px;word-spacing:0px;fill:#000000;fill-opacity:1;stroke:none;stroke-width:1px;stroke-linecap:butt;stroke-linejoin:miter;stroke-opacity:1"
       x="296.85104"
       y="309.72842"
       id="text4155"
       sodipodi:linespacing="125%"><tspan
         sodipodi:role="line"
         id="tspan4157"
         x="296.85104"
         y="309.72842"
         style="font-size:30px">S</tspan></text>
    <text
       sodipodi:linespacing="125%"
       id="text4159"
       y="309.72842"
       x="378.16833"
       style="font-style:normal;font-weight:normal;font-size:180px;line-height:125%;font-family:sans-serif;letter-spacing:0px;word-spacing:0px;fill:#000000;fill-opacity:1;stroke:none;stroke-width:1px;stroke-linecap:butt;stroke-linejoin:miter;stroke-opacity:1"
       xml:space="preserve"><tspan
         style="font-size:30px"
         y="309.72842"
         x="378.16833"
         id="tspan4161"
         sodipodi:role="line">D</tspan></text>
    <text
       sodipodi:linespacing="125%"
       id="text4163"
       y="225.38069"
       x="269.57693"
       style="font-style:normal;font-weight:normal;font-size:180px;line-height:125%;font-family:sans-serif;letter-spacing:0px;word-spacing:0px;fill:#000000;fill-opacity:1;stroke:none;stroke-width:1px;stroke-linecap:butt;stroke-linejoin:miter;stroke-opacity:1"
       xml:space="preserve"><tspan
         style="font-size:30px"
         y="225.38069"
         x="269.57693"
         id="tspan4165"
         sodipodi:role="line">W</tspan></text>
  </g>
  <g
     inkscape:groupmode="layer"
     id="layer9"
     inkscape:label="Layer 2">
    <text
       xml:space="preserve"
       style="font-style:normal;font-weight:normal;font-size:180px;line-height:125%;font-family:sans-serif;letter-spacing:0px;word-spacing:0px;fill:#ffffff;fill-opacity:1;stroke:none;stroke-width:1px;stroke-linecap:butt;stroke-linejoin:miter;stroke-opacity:1;"
       x="321.22852"
       y="87.735931"
       id="text4771"
       sodipodi:linespacing="125%"><tspan
         sodipodi:role="line"
         id="tspan4773"
         x="321.22852"
         y="87.735931"
         style="font-size:35px;fill:#ffffff;fill-opacity:1;">Steering</tspan></text>
    <text
       xml:space="preserve"
       style="font-style:normal;font-weight:normal;font-size:180px;line-height:125%;font-family:sans-serif;letter-spacing:0px;word-spacing:0px;fill:#ffffff;fill-opacity:1;stroke:none;stroke-width:1px;stroke-linecap:butt;stroke-linejoin:miter;stroke-opacity:1;"
       x="55.162521"
       y="438.16483"
       id="text4771-2"
       sodipodi:linespacing="125%"><tspan
         sodipodi:role="line"
         id="tspan4773-4"
         x="55.162521"
         y="438.16483"
         style="font-size:35px;fill:#ffffff;fill-opacity:1;">Shoot</tspan></text>
    <path
       style="fill:none;fill-rule:evenodd;stroke:#000000;stroke-width:4;stroke-linecap:butt;stroke-linejoin:miter;stroke-miterlimit:4;stroke-dasharray:4, 4;stroke-dashoffset:0;stroke-opacity:0.50196078"
       d="m 94.949236,337.79479 0,70.71429"
       id="path5375"
       inkscape:connector-curvature="0" />
    <path
       style="fill:none;fill-rule:evenodd;stroke:#000000;stroke-width:4;stroke-linecap:butt;stroke-linejoin:miter;stroke-miterlimit:4;stroke-dasharray:4, 4;stroke-dashoffset:0;stroke-opacity:0.50196078"
       d="m 284.23495,177.08051 0,-92.142866 32.85715,0"
       id="path5377"
       inkscape:connector-curvature="0" />
    <path
       style="fill:none;fill-rule:evenodd;stroke:#000000;stroke-width:4;stroke-linecap:butt;stroke-linejoin:miter;stroke-miterlimit:4;stroke-dasharray:4, 4;stroke-dashoffset:0;stroke-opacity:0.50196078"
       d="m 217.0921,259.93765 0,-185.714291 99.28571,0"
       id="path5379"
       inkscape:connector-curvature="0" />
    <path
       style="fill:none;fill-rule:evenodd;stroke:#000000;stroke-width:4;stroke-linecap:butt;stroke-linejoin:miter;stroke-miterlimit:4;stroke-dasharray:4, 4;stroke-dashoffset:0;stroke-opacity:0.50196078"
       d="m 329.23495,260.65193 0,-161.428571"
       id="path5381"
       inkscape:connector-curvature="0" />
    <path
       style="fill:none;fill-rule:evenodd;stroke:#000000;stroke-width:4;stroke-linecap:butt;stroke-linejoin:miter;stroke-miterlimit:4;stroke-dasharray:4, 4;stroke-dashoffset:0;stroke-opacity:0.50196078"
       d="m 394.94924,259.93765 0,-162.857148"
       id="path5383"
       inkscape:connector-curvature="0" />
  </g>
</svg>
